Removed Pin From Net: NetName=NetR6_1 Pin=R23-1
Removed Pin From Net: NetName=NetR6_1 Pin=R55-2
Removed Pin From Net: NetName=NetR6_1 Pin=R56-1
Change Component Footprint: Designator=J1 Old Footprint=YAMAICHI_NFP-34A-0124-BF New Footprint=YAMAICHI_NFP-34A-0122-BF
Change Component Footprint: Designator=J2 Old Footprint=YAMAICHI_NFP-34A-0124-BF New Footprint=YAMAICHI_NFP-34A-0122-BF
Change Component Footprint: Designator=J3 Old Footprint=YAMAICHI_NFP-34A-0124-BF New Footprint=YAMAICHI_NFP-34A-0122-BF
Added Pin To Net: NetName=NetR23_1 Pin=R23-1
Added Pin To Net: NetName=NetR23_1 Pin=R55-2
Added Pin To Net: NetName=NetR23_1 Pin=R56-1
Added Net: Name=NetR23_1
