G04 Layer_Physical_Order=6*
G04 Layer_Color=16711680*
%FSLAX45Y45*%
%MOMM*%
%TF.FileFunction,Copper,L6,Bot,Signal*%
%TF.Part,Single*%
G01*
G75*
%TA.AperFunction,NonConductor*%
%ADD10C,0.20320*%
%TA.AperFunction,SMDPad,CuDef*%
%ADD11R,0.62000X0.58000*%
%ADD12R,0.58000X0.62000*%
%TA.AperFunction,Conductor*%
%ADD13C,0.15200*%
%ADD14C,0.15240*%
%TA.AperFunction,NonConductor*%
%ADD15C,0.25400*%
%TA.AperFunction,ComponentPad*%
%ADD16C,1.50000*%
%ADD17C,4.00000*%
%TA.AperFunction,ViaPad*%
%ADD18C,0.80000*%
D10*
X10246260Y5500000D02*
G03*
X10246260Y5500000I-246260J0D01*
G01*
X8573959Y2387415D02*
G03*
X8487356Y2422360I-84414J-84414D01*
G01*
X7327760Y5470800D02*
G03*
X7327760Y5470800I-311760J0D01*
G01*
X6746568Y3837399D02*
G03*
X7036139Y3900956I137810J63557D01*
G01*
D02*
G03*
X6746568Y3964513I-151760J0D01*
G01*
X6885104Y2422360D02*
G03*
X6862664Y2482054I-150104J-22360D01*
G01*
X6702768Y5345250D02*
G03*
X6575287Y5522352I-186760J0D01*
G01*
Y5168147D02*
G03*
X6702768Y5345250I-59279J177103D01*
G01*
X6262008Y5672682D02*
G03*
X6008008Y5672682I-127000J-136932D01*
G01*
D02*
G03*
X5754008Y5672682I-127000J-136932D01*
G01*
X6575768Y5535750D02*
G03*
X6262008Y5672682I-186760J0D01*
G01*
X5246008D02*
G03*
X4992008Y5672682I-127000J-136932D01*
G01*
X5500008D02*
G03*
X5246008Y5672682I-127000J-136932D01*
G01*
X6575768Y5154750D02*
G03*
X6575287Y5168147I-186760J0D01*
G01*
X5754008Y5672682D02*
G03*
X5500008Y5672682I-127000J-136932D01*
G01*
X6575287Y5522353D02*
G03*
X6575768Y5535750I-186279J13397D01*
G01*
X6644049Y4828291D02*
G03*
X6702768Y4964250I-128041J135959D01*
G01*
X6575287Y5141353D02*
G03*
X6575768Y5154750I-186279J13397D01*
G01*
X6702768Y4964250D02*
G03*
X6575287Y5141352I-186760J0D01*
G01*
X6746517Y4676375D02*
G03*
X6711551Y4760789I-119380J0D01*
G01*
X6746517Y4676375D02*
G03*
X6711462Y4760879I-119380J0D01*
G01*
X9827760Y970800D02*
G03*
X9218820Y1065024I-311760J0D01*
G01*
X10346260Y400000D02*
G03*
X10346260Y400000I-246260J0D01*
G01*
X9266130Y784361D02*
G03*
X9827760Y970800I249870J186439D01*
G01*
X9231164Y635781D02*
G03*
X9266130Y720195I-84414J84414D01*
G01*
X9231075Y635691D02*
G03*
X9266130Y720195I-84325J84504D01*
G01*
X9116408Y1795516D02*
G03*
X9081443Y1879931I-119380J0D01*
G01*
X9116408Y1795516D02*
G03*
X9081353Y1880020I-119380J0D01*
G01*
X6935457Y1099476D02*
G03*
X6924729Y1022353I175552J-63726D01*
G01*
X6795760Y970800D02*
G03*
X6767966Y1099476I-311760J0D01*
G01*
X6924729Y668147D02*
G03*
X6924729Y641353I186279J-13397D01*
G01*
Y1022353D02*
G03*
X6924729Y668148I59279J-177103D01*
G01*
X9202768Y464250D02*
G03*
X9168066Y572683I-186760J0D01*
G01*
X6924729Y641353D02*
G03*
X7111008Y327318I59279J-177103D01*
G01*
X6200034Y1099476D02*
G03*
X6795760Y970800I283966J-128676D01*
G01*
X8889008Y327318D02*
G03*
X9202768Y464250I127000J136932D01*
G01*
X8635008Y327318D02*
G03*
X8889008Y327318I127000J136932D01*
G01*
X8381008D02*
G03*
X8635008Y327318I127000J136932D01*
G01*
X7873008D02*
G03*
X8127008Y327318I127000J136932D01*
G01*
D02*
G03*
X8381008Y327318I127000J136932D01*
G01*
X7619008D02*
G03*
X7873008Y327318I127000J136932D01*
G01*
X7365008D02*
G03*
X7619008Y327318I127000J136932D01*
G01*
X7111008D02*
G03*
X7365008Y327318I127000J136932D01*
G01*
X4992008Y5672682D02*
G03*
X4738008Y5672682I-127000J-136932D01*
G01*
D02*
G03*
X4424729Y5522353I-127000J-136932D01*
G01*
Y5522352D02*
G03*
X4299206Y5318278I59279J-177103D01*
G01*
X4295760Y5470800D02*
G03*
X3712096Y5318278I-311760J0D01*
G01*
X4255903D02*
G03*
X4295760Y5470800I-271903J152522D01*
G01*
X2591660Y5318278D02*
G03*
X2507260Y5283318I0J-119360D01*
G01*
X2591660Y5318278D02*
G03*
X2507142Y5283200I0J-119360D01*
G01*
X746260Y5500000D02*
G03*
X746260Y5500000I-246260J0D01*
G01*
X1537588Y4313646D02*
G03*
X1502510Y4229128I84282J-84518D01*
G01*
X1537470Y4313528D02*
G03*
X1502510Y4229128I84400J-84400D01*
G01*
Y3888340D02*
G03*
X1502510Y3610046I-60574J-139147D01*
G01*
X1308008Y2474894D02*
G03*
X1407240Y2251818I131992J-74894D01*
G01*
X4327760Y970800D02*
G03*
X4299966Y1099476I-311760J0D01*
G01*
X2518010Y1187403D02*
G03*
X2500008Y1172682I108998J-151653D01*
G01*
X3575768Y1035750D02*
G03*
X3564560Y1099476I-186760J0D01*
G01*
X3575287Y1022353D02*
G03*
X3575768Y1035750I-186279J13397D01*
G01*
X2246008Y1172682D02*
G03*
X1992008Y1172682I-127000J-136932D01*
G01*
X2500008D02*
G03*
X2246008Y1172682I-127000J-136932D01*
G01*
X3732034Y1099476D02*
G03*
X4327760Y970800I283966J-128676D01*
G01*
X3702768Y845250D02*
G03*
X3575287Y1022353I-186760J0D01*
G01*
Y668148D02*
G03*
X3702768Y845250I-59279J177103D01*
G01*
X3575287Y641353D02*
G03*
X3575768Y654750I-186279J13397D01*
G01*
D02*
G03*
X3575287Y668147I-186760J0D01*
G01*
X3702768Y464250D02*
G03*
X3575287Y641353I-186760J0D01*
G01*
X3389008Y327318D02*
G03*
X3702768Y464250I127000J136932D01*
G01*
X3135008Y327318D02*
G03*
X3389008Y327318I127000J136932D01*
G01*
X2881008D02*
G03*
X3135008Y327318I127000J136932D01*
G01*
X2627008D02*
G03*
X2881008Y327318I127000J136932D01*
G01*
X2119008D02*
G03*
X2373008Y327318I127000J136932D01*
G01*
D02*
G03*
X2627008Y327318I127000J136932D01*
G01*
X1992008Y1172682D02*
G03*
X1738008Y1172682I-127000J-136932D01*
G01*
D02*
G03*
X1424729Y1022353I-127000J-136932D01*
G01*
Y1022353D02*
G03*
X1424729Y668148I59279J-177103D01*
G01*
X1295760Y970800D02*
G03*
X1295760Y970800I-311760J0D01*
G01*
X1865008Y327318D02*
G03*
X2119008Y327318I127000J136932D01*
G01*
X1424729Y668147D02*
G03*
X1424729Y641353I186279J-13397D01*
G01*
Y641353D02*
G03*
X1611008Y327318I59279J-177103D01*
G01*
D02*
G03*
X1865008Y327318I127000J136932D01*
G01*
X646260Y400000D02*
G03*
X646260Y400000I-246260J0D01*
G01*
X10072052Y6000000D02*
X10500000Y5572052D01*
X10359420Y6000000D02*
X10500000Y5859420D01*
X10000210Y6000000D02*
X10500000Y5500209D01*
X9928367Y6000000D02*
X10500000Y5428367D01*
X9856525Y6000000D02*
X10500000Y5356525D01*
X10431262Y6000000D02*
X10500000Y5931262D01*
X10287578Y6000000D02*
X10500000Y5787578D01*
X10215736Y6000000D02*
X10500000Y5715736D01*
X10143894Y6000000D02*
X10500000Y5643894D01*
X10002969Y5746242D02*
X10256727Y6000000D01*
X9784683D02*
X10042038Y5742646D01*
X9916588Y5731703D02*
X10184885Y6000000D01*
X9712841D02*
X9968592Y5744249D01*
X9425473Y6000000D02*
X9792638Y5632835D01*
X10117066Y5716655D02*
X10400411Y6000000D01*
X10159705Y5687452D02*
X10472253Y6000000D01*
X10065859Y5737290D02*
X10328569Y6000000D01*
X9138104D02*
X10500000Y4638104D01*
X8347841Y6000000D02*
X10500000Y3847841D01*
X8419683Y6000000D02*
X10500000Y3919683D01*
X8275999Y6000000D02*
X10500000Y3775999D01*
X8204157Y6000000D02*
X10500000Y3704157D01*
X8132314Y6000000D02*
X10500000Y3632315D01*
X8060472Y6000000D02*
X10500000Y3560472D01*
X7988630Y6000000D02*
X10500000Y3488630D01*
X7916788Y6000000D02*
X10500000Y3416788D01*
X7844946Y6000000D02*
X10500000Y3344946D01*
X8994420Y6000000D02*
X10500000Y4494420D01*
X9066262Y6000000D02*
X10500000Y4566262D01*
X8922578Y6000000D02*
X10500000Y4422578D01*
X8850736Y6000000D02*
X10500000Y4350736D01*
X8778894Y6000000D02*
X10500000Y4278894D01*
X8707051Y6000000D02*
X10500000Y4207052D01*
X8635209Y6000000D02*
X10500000Y4135209D01*
X8563367Y6000000D02*
X10500000Y4063367D01*
X8491525Y6000000D02*
X10500000Y3991525D01*
X7033941Y3926688D02*
X9107253Y6000000D01*
X7014487Y3979077D02*
X9035411Y6000000D01*
X7026301Y3847206D02*
X9179095Y6000000D01*
X6935554Y4043827D02*
X8891726Y6000000D01*
X6981302Y4017733D02*
X8963569Y6000000D01*
X6746568Y3351947D02*
X9394621Y6000000D01*
X6746568Y3280105D02*
X9466463Y6000000D01*
X6746568Y3495631D02*
X9250937Y6000000D01*
X6746568Y3423789D02*
X9322779Y6000000D01*
X6746568Y4285894D02*
X8460674Y6000000D01*
X6746568Y4357737D02*
X8388832Y6000000D01*
X6746568Y4214052D02*
X8532516Y6000000D01*
X6746568Y4501421D02*
X8245147Y6000000D01*
X6746568Y4429579D02*
X8316989Y6000000D01*
X6872103Y4052219D02*
X8819884Y6000000D01*
X6746568Y3998526D02*
X8748042Y6000000D01*
X6746568Y4142210D02*
X8604358Y6000000D01*
X6746568Y4070368D02*
X8676200Y6000000D01*
X7413893D02*
X10500000Y2913894D01*
X7485735Y6000000D02*
X10500000Y2985736D01*
X7342051Y6000000D02*
X10500000Y2842051D01*
X7198367Y6000000D02*
X10500000Y2698367D01*
X6982840Y6000000D02*
X10500000Y2482841D01*
X7773104Y6000000D02*
X10500000Y3273104D01*
X7701262Y6000000D02*
X10500000Y3201262D01*
X7629420Y6000000D02*
X10500000Y3129420D01*
X7557577Y6000000D02*
X10500000Y3057578D01*
X6767760Y2798402D02*
X9969358Y6000000D01*
X6746568Y3064578D02*
X9681990Y6000000D01*
X6767760Y2726559D02*
X10041200Y6000000D01*
X6746568Y3208263D02*
X9538306Y6000000D01*
X6746568Y3136420D02*
X9610148Y6000000D01*
X7270209D02*
X10500000Y2770209D01*
X7126525Y6000000D02*
X10500000Y2626525D01*
X6805230Y2692188D02*
X10113043Y6000000D01*
X7054683D02*
X10500000Y2554683D01*
X10240542Y5552762D02*
X10500000Y5812221D01*
X10222169Y5606231D02*
X10500000Y5884063D01*
X10245876Y5486255D02*
X10500000Y5740378D01*
X10194778Y5650683D02*
X10500000Y5955905D01*
X10219164Y5387700D02*
X10500000Y5668536D01*
X10242646Y5542037D02*
X10500000Y5284683D01*
X10244249Y5468592D02*
X10500000Y5212841D01*
X10229722Y5411277D02*
X10500000Y5140999D01*
X10205243Y5363914D02*
X10500000Y5069157D01*
X9640999Y6000000D02*
X9911277Y5729722D01*
X9569157Y6000000D02*
X9863914Y5705243D01*
X9497315Y6000000D02*
X9824531Y5672784D01*
X9281788Y6000000D02*
X9755181Y5526607D01*
X9209946Y6000000D02*
X9758593Y5451354D01*
X10172784Y5324530D02*
X10500000Y4997315D01*
X10132835Y5292638D02*
X10500000Y4925473D01*
X9353631Y6000000D02*
X9768809Y5584821D01*
X10026607Y5255181D02*
X10500000Y4781789D01*
X10084822Y5268809D02*
X10500000Y4853631D01*
X9951354Y5258592D02*
X10500000Y4709946D01*
X8187772Y2422360D02*
X10500000Y4734588D01*
X8259614Y2422360D02*
X10500000Y4662746D01*
X8475140Y2422360D02*
X10500000Y4447220D01*
X8537115Y2412493D02*
X10500000Y4375378D01*
X8331456Y2422360D02*
X10500000Y4590904D01*
X8403298Y2422360D02*
X10500000Y4519062D01*
X8686682Y2274691D02*
X10500000Y4088009D01*
X8650761Y2310612D02*
X10500000Y4159851D01*
X8722603Y2238770D02*
X10500000Y4016167D01*
X8578919Y2382454D02*
X10500000Y4303536D01*
X8614840Y2346534D02*
X10500000Y4231694D01*
X8794445Y2166928D02*
X10500000Y3872483D01*
X8830366Y2131007D02*
X10500000Y3800641D01*
X8758524Y2202849D02*
X10500000Y3944325D01*
X7541192Y2422360D02*
X10500000Y5381168D01*
X7469350Y2422360D02*
X10500000Y5453010D01*
X7613035Y2422360D02*
X10500000Y5309326D01*
X7325666Y2422360D02*
X10500000Y5596694D01*
X7397508Y2422360D02*
X10500000Y5524852D01*
X7828561Y2422360D02*
X10500000Y5093799D01*
X7972245Y2422360D02*
X10500000Y4950115D01*
X7684877Y2422360D02*
X10500000Y5237484D01*
X7756719Y2422360D02*
X10500000Y5165641D01*
X6767760Y2870244D02*
X9897516Y6000000D01*
X6862664Y2677780D02*
X9768297Y5583412D01*
X6862664Y2605938D02*
X9753758Y5497031D01*
X6746568Y2992736D02*
X9753832Y6000000D01*
X6763434Y2937760D02*
X9825674Y6000000D01*
X8044087Y2422360D02*
X10500000Y4878273D01*
X8115929Y2422360D02*
X10500000Y4806431D01*
X6862664Y2534096D02*
X9762710Y5434141D01*
X6869911Y2469500D02*
X9783345Y5382934D01*
X7326331Y5440983D02*
X10500000Y2267314D01*
X7324686Y5514470D02*
X10500000Y2339157D01*
X7314530Y5380942D02*
X10500000Y2195472D01*
X7288191Y5622807D02*
X10500000Y2410999D01*
X7293978Y5329652D02*
X10500000Y2123630D01*
X7253824Y2422360D02*
X10112300Y5280836D01*
X7900403Y2422360D02*
X10500000Y5021957D01*
X7110140Y2422360D02*
X9947238Y5259458D01*
X7181982Y2422360D02*
X10013745Y5254124D01*
X7032315Y3867104D02*
X8477059Y2422360D01*
X7010711Y3816866D02*
X8405217Y2422360D01*
X7038298D02*
X9893769Y5277831D01*
X6894613Y2422360D02*
X9812548Y5340295D01*
X6966455Y2422360D02*
X9849317Y5305222D01*
X6928225Y3755668D02*
X8261532Y2422360D01*
X6975864Y3779871D02*
X8333374Y2422360D01*
X6861051Y3750999D02*
X8189690Y2422360D01*
X6885104D02*
X8487356D01*
X7021863Y5782505D02*
X7239358Y6000000D01*
X6940893Y5773378D02*
X7167516Y6000000D01*
X6910998D02*
X7168007Y5742991D01*
X6767314Y6000000D02*
X6986183Y5781131D01*
X6839156Y6000000D02*
X7059670Y5779486D01*
X7186615Y5731731D02*
X7454884Y6000000D01*
X7227017Y5700291D02*
X7526726Y6000000D01*
X7085837Y5774637D02*
X7311200Y6000000D01*
X7139917Y5756875D02*
X7383042Y6000000D01*
X6449056Y5712593D02*
X6736463Y6000000D01*
X6387121Y5722500D02*
X6664621Y6000000D01*
X6479946D02*
X6792152Y5687794D01*
X6221966Y5701030D02*
X6520936Y6000000D01*
X6280615Y5687836D02*
X6592779Y6000000D01*
X6695472D02*
X6926142Y5769330D01*
X6623630Y6000000D02*
X6874852Y5748778D01*
X6551788Y6000000D02*
X6830454Y5721333D01*
X6496664Y5688359D02*
X6808305Y6000000D01*
X7325150Y5511056D02*
X7814095Y6000000D01*
X7311731Y5569479D02*
X7742252Y6000000D01*
X7326268Y5440331D02*
X7885937Y6000000D01*
X7261511Y5662942D02*
X7598568Y6000000D01*
X7289976Y5619566D02*
X7670410Y6000000D01*
X7300019Y5342240D02*
X7957779Y6000000D01*
X6746568Y4573263D02*
X8173305Y6000000D01*
X6741206Y4711585D02*
X8029621Y6000000D01*
X6746517Y4645054D02*
X8101463Y6000000D01*
X6533826Y5653679D02*
X6880147Y6000000D01*
X6408104D02*
X6759744Y5648359D01*
X6336261Y6000000D02*
X6733531Y5602730D01*
X6264419Y6000000D02*
X6714457Y5549962D01*
X6192577Y6000000D02*
X6704707Y5487870D01*
X6605076Y5509403D02*
X7095673Y6000000D01*
X6560859Y5608870D02*
X6951989Y6000000D01*
X6575120Y5551289D02*
X7023831Y6000000D01*
X5905209D02*
X6191423Y5713786D01*
X5884208Y5722483D02*
X6161726Y6000000D01*
X5944833Y5711265D02*
X6233568Y6000000D01*
X5833367D02*
X6112248Y5721118D01*
X5664838Y5718639D02*
X5946199Y6000000D01*
X6120735D02*
X6398464Y5722270D01*
X6168565Y5719471D02*
X6449094Y6000000D01*
X6095545Y5718293D02*
X6377252Y6000000D01*
X6048893D02*
X6334511Y5714382D01*
X5330472Y6000000D02*
X5608847Y5721625D01*
X5114945Y6000000D02*
X5393571Y5721375D01*
X5161027Y5717722D02*
X5443305Y6000000D01*
X5092011Y5720548D02*
X5371462Y6000000D01*
X5043103D02*
X5326481Y5716622D01*
X5617840Y6000000D02*
X5895927Y5721913D01*
X5593911Y5719554D02*
X5874357Y6000000D01*
X5381163Y5722332D02*
X5658831Y6000000D01*
X5545998D02*
X5830459Y5715539D01*
X5717284Y5699242D02*
X6018042Y6000000D01*
X5717284Y5699242D02*
X6018042Y6000000D01*
X5689682D02*
X6012750Y5676932D01*
X5474156Y6000000D02*
X5780804Y5693352D01*
X5486548Y5684033D02*
X5802515Y6000000D01*
X5977051D02*
X6285709Y5691341D01*
X5991632Y5686222D02*
X6305410Y6000000D01*
X5761524D02*
X6056375Y5705149D01*
X5787020Y5697136D02*
X6089884Y6000000D01*
X5212545Y5697398D02*
X5515147Y6000000D01*
X4981414Y5681794D02*
X5299620Y6000000D01*
X5186787D02*
X5507511Y5679276D01*
X4936191Y5708413D02*
X5227778Y6000000D01*
X4971261D02*
X5275951Y5695310D01*
X5402314Y6000000D02*
X5691172Y5711142D01*
X5440544Y5709871D02*
X5730673Y6000000D01*
X5258630D02*
X5551892Y5706738D01*
X5290075Y5703086D02*
X5586989Y6000000D01*
X6746568Y3711157D02*
X6806258Y3770847D01*
X6746568Y4152851D02*
X6850527Y4048892D01*
X6746568Y4224693D02*
X6923738Y4047523D01*
X6767760Y2766669D02*
X6842241Y2692188D01*
X6768665D02*
X6862664D01*
X6746568Y3639315D02*
X6858646Y3751393D01*
X6746568Y3567473D02*
X6938128Y3759033D01*
X6746568Y3783000D02*
X6767601Y3804032D01*
X6746568Y4009166D02*
X6763293Y3992441D01*
X6746568Y2937760D02*
Y3837399D01*
Y4081009D02*
X6800288Y4027289D01*
X6746568Y3964513D02*
Y4627839D01*
X6767760Y2843760D02*
Y2937760D01*
Y2692188D02*
Y2843760D01*
X6746568Y2937760D02*
X6767760D01*
Y2692188D02*
Y2843760D01*
X6746568Y3649967D02*
X7974175Y2422360D01*
X6746568Y3578124D02*
X7902332Y2422360D01*
X6746568Y3290756D02*
X7614964Y2422360D01*
X6746568Y3793640D02*
X8117848Y2422360D01*
X6746568Y3721809D02*
X8046017Y2422360D01*
X6746568Y3075230D02*
X7399438Y2422360D01*
X6746568Y3003387D02*
X7327595Y2422360D01*
X6746568Y3218914D02*
X7543122Y2422360D01*
X6746568Y3147072D02*
X7471280Y2422360D01*
X6862664Y2482054D02*
Y2692188D01*
X6842241D02*
X6862664Y2671765D01*
X7112069Y2422360D01*
X6767760Y2838511D02*
X7183911Y2422360D01*
X6767760Y2910354D02*
X7255753Y2422360D01*
X6882273Y2436630D02*
X6896543Y2422360D01*
X6862664Y2599923D02*
X7040227Y2422360D01*
X6862664Y2528081D02*
X6968385Y2422360D01*
X6670396Y5450339D02*
X6710100Y5410635D01*
X6677835Y5438477D02*
X6704295Y5464937D01*
X6698071Y5386871D02*
X6712163Y5400963D01*
X6646436Y5478920D02*
X6713422Y5545907D01*
X6700722Y5317680D02*
X6729925Y5346883D01*
X6702766Y5346127D02*
X6771423Y5277470D01*
X6575529Y5545206D02*
X6621097Y5499638D01*
X6702730Y4960478D02*
X6917321Y5175069D01*
X6693318Y5022907D02*
X6867234Y5196823D01*
X6714987Y4757208D02*
X7144560Y5186781D01*
X6669382Y5070814D02*
X6823857Y5225289D01*
X6662491Y4848397D02*
X6975744Y5161650D01*
X6746568Y3434440D02*
X7758648Y2422360D01*
X6746568Y3362598D02*
X7686806Y2422360D01*
X6679139Y4793202D02*
X7046469Y5160532D01*
X6746568Y3506282D02*
X7830490Y2422360D01*
X6634957Y5108231D02*
X6786509Y5259783D01*
X6590427Y5135543D02*
X6755069Y5300185D01*
X6746517Y4631330D02*
Y4676375D01*
X6644049Y4828291D02*
X6711462Y4760879D01*
X9116408Y1626786D02*
X10500000Y3010378D01*
X9116408Y1554944D02*
X10500000Y2938535D01*
X9116408Y1483102D02*
X10500000Y2866693D01*
X9116408Y1770470D02*
X10500000Y3154062D01*
X9116408Y1698628D02*
X10500000Y3082220D01*
X9489473Y1281429D02*
X10500000Y2291956D01*
X9559409Y1279523D02*
X10500000Y2220114D01*
X9116408Y1411260D02*
X10500000Y2794851D01*
X9116408Y1339417D02*
X10500000Y2723009D01*
X9393824Y1257623D02*
X10500000Y2363798D01*
X9617353Y1265625D02*
X10500000Y2148272D01*
X9667078Y1243508D02*
X10500000Y2076430D01*
X9116408Y1267575D02*
X10500000Y2651167D01*
X9116408Y1195733D02*
X10500000Y2579325D01*
X9116408Y1639326D02*
X9475780Y1279955D01*
X9710144Y1214732D02*
X10500000Y2004588D01*
X9116408Y1495642D02*
X9367260Y1244790D01*
X9116408Y1423800D02*
X9323880Y1216328D01*
X9778339Y1139242D02*
X10500000Y1860903D01*
X9747199Y1179945D02*
X10500000Y1932745D01*
X10499999Y-0D02*
X10500000Y6000000D01*
X9138180Y1145663D02*
X10500000Y2507482D01*
X9174101Y1109742D02*
X10500000Y2435640D01*
X9820494Y1037714D02*
X10500000Y1717219D01*
X9827751Y973129D02*
X10500000Y1645377D01*
X9803148Y1092210D02*
X10500000Y1789061D01*
X9141991Y-0D02*
X10500000Y1358008D01*
X9817341Y890877D02*
X10500000Y1573535D01*
X9213833Y-0D02*
X10500000Y1286166D01*
X9116408Y1351969D02*
X9286533Y1181843D01*
X9116408Y1280126D02*
X9255089Y1141446D01*
X9960357Y602839D02*
X10500000Y1142482D01*
X9799986Y1099433D02*
X10499999Y399420D01*
X9116408Y1208284D02*
X9229940Y1094752D01*
X9285675Y-0D02*
X10500000Y1214324D01*
X8938129Y2023244D02*
X10500000Y3585114D01*
X8902208Y2059165D02*
X10500000Y3656957D01*
X8974050Y1987323D02*
X10500000Y3513272D01*
X8866287Y2095086D02*
X10500000Y3728799D01*
X7266534Y5285254D02*
X10500000Y2051788D01*
X9081813Y1879559D02*
X10500000Y3297746D01*
X9109535Y1835439D02*
X10500000Y3225904D01*
X9009971Y1951402D02*
X10500000Y3441430D01*
X9045892Y1915481D02*
X10500000Y3369588D01*
X7193559Y5214544D02*
X10500000Y1908104D01*
X7232994Y5246952D02*
X10500000Y1979946D01*
X6822670Y5226223D02*
X10500000Y1548893D01*
X6692596Y5284455D02*
X10500000Y1477051D01*
X6668202Y5237007D02*
X10500000Y1405209D01*
X7147930Y5188331D02*
X10500000Y1836262D01*
X7095162Y5169257D02*
X10500000Y1764420D01*
X7033070Y5159507D02*
X10500000Y1692578D01*
X6955835Y5164900D02*
X10500000Y1620735D01*
X6697526Y4920314D02*
X10500000Y1117841D01*
X6701188Y4988494D02*
X10500000Y1189683D01*
X6676781Y4869217D02*
X10500000Y1045998D01*
X6633383Y5199983D02*
X10500000Y1333367D01*
X6588424Y5173101D02*
X10500000Y1261525D01*
X8998307Y-0D02*
X10500000Y1501693D01*
X9070149Y-0D02*
X10500000Y1429851D01*
X6644981Y4829175D02*
X10499999Y974157D01*
X6746517Y4655797D02*
X10499999Y902314D01*
X6746568Y4368377D02*
X10499999Y614946D01*
X6746568Y4440219D02*
X10499999Y686788D01*
X6746568Y4296535D02*
X10499999Y543104D01*
X6746568Y4583903D02*
X10499999Y830472D01*
X6746568Y4512061D02*
X10499999Y758630D01*
X9116408Y1711169D02*
X9546514Y1281063D01*
X9116408Y1567484D02*
X9417351Y1266541D01*
X9116408Y1783011D02*
X9644633Y1254786D01*
X7030946Y3940315D02*
X10499999Y471262D01*
X10244381Y599495D02*
X10499999Y855113D01*
X10198672Y625628D02*
X10499999Y926955D01*
X10282295Y565567D02*
X10499999Y783271D01*
X10074272Y644912D02*
X10500000Y1070640D01*
X10143576Y642374D02*
X10499999Y998798D01*
X10346070Y409664D02*
X10499999Y255735D01*
X10339824Y344068D02*
X10499999Y183893D01*
X10312692Y524122D02*
X10499999Y711429D01*
X10322910Y504667D02*
X10499999Y327577D01*
X9825155Y930580D02*
X10109664Y646070D01*
X9811741Y872151D02*
X10044068Y639824D01*
X9826263Y1001313D02*
X10204667Y622910D01*
X9789991Y822060D02*
X9991152Y620898D01*
X9761528Y778680D02*
X9947137Y593072D01*
X10345883Y413628D02*
X10499999Y567745D01*
X10336921Y332824D02*
X10499999Y495903D01*
X9727044Y741333D02*
X9910776Y557601D01*
X10334767Y474355D02*
X10499999Y639587D01*
X10293072Y247136D02*
X10499999Y40209D01*
X10320899Y291152D02*
X10499999Y112051D01*
X10219623Y-0D02*
X10499999Y280376D01*
X10075938Y-0D02*
X10499999Y424061D01*
X10147781Y-0D02*
X10499999Y352218D01*
X10363307Y-0D02*
X10499999Y136692D01*
X10435149Y-0D02*
X10499999Y64850D01*
X10257601Y210776D02*
X10468377Y-0D01*
X10291465D02*
X10499999Y208534D01*
X10010383Y170625D02*
X10181009Y-0D01*
X9860412D02*
X10025645Y165233D01*
X10214538Y181997D02*
X10396535Y-0D01*
X9788570D02*
X9975878Y187308D01*
X10099109Y153741D02*
X10252851Y-0D01*
X10162808Y161884D02*
X10324693Y-0D01*
X9932254D02*
X10086372Y154117D01*
X10004096Y-0D02*
X10167176Y163079D01*
X9686646Y709889D02*
X9881997Y514537D01*
X9639952Y684740D02*
X9861884Y462808D01*
X9585878Y666972D02*
X9853742Y399109D01*
X9195526Y412745D02*
X9449086Y666305D01*
X9573044Y-0D02*
X9874372Y301328D01*
X9716728Y-0D02*
X9934433Y217705D01*
X9521912Y659096D02*
X9870625Y310383D01*
X9429359Y-0D02*
X9855088Y425728D01*
X9266130Y770718D02*
X9272068Y776656D01*
X9266130Y720195D02*
Y784361D01*
X9263755Y696501D02*
X9306855Y739601D01*
X9210022Y1073821D02*
X9229177Y1092975D01*
X9200979Y490040D02*
X9394590Y683652D01*
X9168066Y572683D02*
X9231075Y635691D01*
X9184307Y545211D02*
X9347558Y708461D01*
X9266130Y771194D02*
X10037324Y-0D01*
X9264563Y700919D02*
X9965482Y-0D01*
X9440961Y668205D02*
X10109166Y-0D01*
X9208591Y613207D02*
X9821798Y-0D01*
X9243450Y650190D02*
X9893640Y-0D01*
X9501201D02*
X9857626Y356424D01*
X9644886Y-0D02*
X9900505Y255619D01*
X9172670Y577286D02*
X9749956Y-0D01*
X9357517D02*
X9897161Y539643D01*
X9195074Y411197D02*
X9606272Y-0D01*
X9172346Y362084D02*
X9534429Y-0D01*
X9202417Y475696D02*
X9678114Y-0D01*
X8854622D02*
X9513671Y659048D01*
X8926464Y-0D02*
X9595923Y669459D01*
X9095495Y295250D02*
X9390745Y-0D01*
X9138936Y323651D02*
X9462587Y-0D01*
X8961413Y285648D02*
X9247061Y-0D01*
X9039881Y279022D02*
X9318903Y-0D01*
X9116408Y1167435D02*
Y1795516D01*
Y1167435D02*
X9218820Y1065024D01*
X8573959Y2387415D02*
X9081353Y1880020D01*
X6926269Y1099476D02*
X6933119Y1092626D01*
X6767966Y1099476D02*
X6935457D01*
X6795508Y958254D02*
X6934751Y1097497D01*
X6854426Y1099476D02*
X6924351Y1029552D01*
X6790922Y1025511D02*
X6864887Y1099476D01*
X6782584D02*
X6881016Y1001044D01*
X6775341Y1081772D02*
X6793045Y1099476D01*
X6792157Y1018061D02*
X6842772Y967446D01*
X6794588Y943789D02*
X6814572Y923804D01*
X6778973Y869877D02*
X6803958Y894863D01*
X6783230Y883304D02*
X6798627Y867907D01*
X6503960Y659679D02*
X7163639Y-0D01*
X6302973Y716982D02*
X7019955Y-0D01*
X6427616Y664181D02*
X7091797Y-0D01*
X6898688Y630382D02*
X6924252Y655946D01*
X6735831Y787019D02*
X6894620Y628229D01*
X6763003Y831689D02*
X6806026Y788666D01*
X6702543Y748464D02*
X6853331Y597677D01*
X6663363Y715803D02*
X6822001Y557164D01*
X6618011Y689312D02*
X6801854Y505470D01*
X6565579Y669902D02*
X6799382Y436099D01*
X6196464Y-0D02*
X6883992Y687528D01*
X6268306Y-0D02*
X6817876Y549570D01*
X5776795Y1099476D02*
X6876271Y-0D01*
X5704953Y1099476D02*
X6804429Y-0D01*
X5848637Y1099476D02*
X6948113Y-0D01*
X5561268Y1099476D02*
X6660745Y-0D01*
X5633110Y1099476D02*
X6732587Y-0D01*
X6052780D02*
X6816153Y763373D01*
X6124622Y-0D02*
X6845070Y720448D01*
X5909095Y-0D02*
X6584923Y675827D01*
X5980937Y-0D02*
X6799207Y818269D01*
X6136005Y1099476D02*
X6183102Y1052379D01*
X6064163Y1099476D02*
X6172879Y990760D01*
X5992321Y1099476D02*
X6177381Y914416D01*
X5920479Y1099476D02*
X6230182Y789773D01*
X5549885Y-0D02*
X6282659Y732774D01*
X5765411Y-0D02*
X6429289Y663878D01*
X5837253Y-0D02*
X6496546Y659292D01*
X5621727Y-0D02*
X6324599Y702872D01*
X5693569Y-0D02*
X6373028Y679459D01*
X5417584Y1099476D02*
X6517060Y-0D01*
X5345742Y1099476D02*
X6445218Y-0D01*
X5489426Y1099476D02*
X6588902Y-0D01*
X5202058Y1099476D02*
X6301534Y-0D01*
X5273900Y1099476D02*
X6373376Y-0D01*
X5406201D02*
X6216643Y810442D01*
X5478043Y-0D02*
X6246676Y768633D01*
X5130216Y1099476D02*
X6229692Y-0D01*
X5334358D02*
X6193082Y858723D01*
X5046990Y-0D02*
X6146466Y1099476D01*
X4986531D02*
X6086008Y-0D01*
X5058373Y1099476D02*
X6157850Y-0D01*
X4903306D02*
X6002782Y1099476D01*
X4914689D02*
X6014166Y-0D01*
X5190674D02*
X6172432Y981758D01*
X5262516Y-0D02*
X6177311Y914795D01*
X4975148Y-0D02*
X6074624Y1099476D01*
X5118832Y-0D02*
X6188248Y1069416D01*
X8866058Y309160D02*
X9175219Y-0D01*
X8567254D02*
X8891924Y324670D01*
X8633635Y326057D02*
X8959693Y-0D01*
X8782780D02*
X9067513Y284732D01*
X8817463Y285913D02*
X9103377Y-0D01*
X8710938D02*
X8990218Y279279D01*
X8753867Y277667D02*
X9031535Y-0D01*
X8590938Y296912D02*
X8887850Y-0D01*
X8495412D02*
X8773240Y277828D01*
X8536354Y279654D02*
X8816008Y-0D01*
X8423570D02*
X8708800Y285230D01*
X8460544Y283622D02*
X8744166Y-0D01*
X8361088Y311236D02*
X8672324Y-0D01*
X8351728D02*
X8659720Y307992D01*
X8639096Y-0D02*
X8935047Y295951D01*
X8136201Y-0D02*
X8430524Y294322D01*
X8141966Y314832D02*
X8456798Y-0D01*
X8279885D02*
X8566906Y287020D01*
X8313322Y287159D02*
X8600482Y-0D01*
X8208043D02*
X8486748Y278704D01*
X8251128Y277512D02*
X8528640Y-0D01*
X8064359D02*
X8386652Y322292D01*
X7856065Y313364D02*
X8169429Y-0D01*
X8086323Y298633D02*
X8384956Y-0D01*
X7809113Y288474D02*
X8097587Y-0D01*
X7848833D02*
X8154832Y305999D01*
X7992517Y-0D02*
X8270760Y278243D01*
X8032734Y280379D02*
X8313113Y-0D01*
X7920675D02*
X8204772Y284097D01*
X7959288Y281983D02*
X8241271Y-0D01*
X7633306D02*
X7926060Y292754D01*
X7649613Y304290D02*
X7953903Y-0D01*
X7561464D02*
X7881429Y319965D01*
X7581651Y300410D02*
X7882061Y-0D01*
X7748241Y277503D02*
X8025745Y-0D01*
X7776991D02*
X8066853Y289862D01*
X7529024Y281195D02*
X7810219Y-0D01*
X7705148D02*
X7983380Y278232D01*
X7350992Y315542D02*
X7666534Y-0D01*
X7345938D02*
X7649997Y304059D01*
X7274096Y-0D02*
X7567542Y293446D01*
X7457710Y280666D02*
X7738376Y-0D01*
X7489622D02*
X7768468Y278845D01*
X7304836Y289856D02*
X7594692Y-0D01*
X7417780D02*
X7700819Y283039D01*
X7130411Y-0D02*
X7421658Y291247D01*
X7076923Y302243D02*
X7379166Y-0D01*
X7153101Y297907D02*
X7451008Y-0D01*
X7025228Y282095D02*
X7307324Y-0D01*
X7058569D02*
X7376256Y317687D01*
X7202254Y-0D02*
X7480122Y277869D01*
X7245220Y277629D02*
X7522850Y-0D01*
X6955858Y279624D02*
X7235482Y-0D01*
X6986727D02*
X7266386Y279659D01*
X6555674Y-0D02*
X6871134Y315459D01*
X6483832Y-0D02*
X6835213Y351381D01*
X6843043Y-0D02*
X7145216Y302173D01*
X6340148Y-0D02*
X6797380Y457231D01*
X6411990Y-0D02*
X6809558Y397568D01*
X6771201Y-0D02*
X7069310Y298109D01*
X6914885Y-0D02*
X7196945Y282060D01*
X6627517Y-0D02*
X6917319Y289803D01*
X6699359Y-0D02*
X6976981Y277622D01*
X4589879Y5721311D02*
X4868568Y6000000D01*
X4324693D02*
X4602382Y5722311D01*
X4540208Y6000000D02*
X4822581Y5717627D01*
X4117977Y5752304D02*
X4365673Y6000000D01*
X4163333Y5725818D02*
X4437515Y6000000D01*
X4877994Y5722058D02*
X5155936Y6000000D01*
X4827577D02*
X5105552Y5722025D01*
X4612050Y6000000D02*
X4891417Y5720633D01*
X4657134Y5716724D02*
X4940410Y6000000D01*
X3821798D02*
X4045330Y5776468D01*
X3749956Y6000000D02*
X3967816Y5782140D01*
X3678114Y6000000D02*
X3905578Y5772535D01*
X3606271Y6000000D02*
X3852706Y5753565D01*
X3534429Y6000000D02*
X3806992Y5727437D01*
X4003912Y5781923D02*
X4221989Y6000000D01*
X4065539Y5771708D02*
X4293831Y6000000D01*
X3927554Y5777407D02*
X4150146Y6000000D01*
X3802796Y5724491D02*
X4078304Y6000000D01*
X4468377D02*
X4771159Y5697217D01*
X4396535Y6000000D02*
X4692971Y5703563D01*
X4683893Y6000000D02*
X5002322Y5681571D01*
X4283219Y5558335D02*
X4724883Y6000000D01*
X4294583Y5497858D02*
X4796725Y6000000D01*
X4899419D02*
X5191590Y5707829D01*
X4791552Y5707457D02*
X5084094Y6000000D01*
X4755735D02*
X5047469Y5708265D01*
X4707752Y5695500D02*
X5012252Y6000000D01*
X4181008D02*
X4497189Y5683819D01*
X4109166Y6000000D02*
X4461497Y5647669D01*
X4037324Y6000000D02*
X4436101Y5601223D01*
X3893640Y6000000D02*
X4182159Y5711481D01*
X3965482Y6000000D02*
X4424326Y5541156D01*
X4252851Y6000000D02*
X4543117Y5709733D01*
X4262986Y5609945D02*
X4653041Y6000000D01*
X4202518Y5693161D02*
X4509357Y6000000D01*
X4235809Y5654610D02*
X4581199Y6000000D01*
X3462587D02*
X3767480Y5695107D01*
X3390745Y6000000D02*
X3733864Y5656881D01*
X3109214Y5318278D02*
X3790936Y6000000D01*
X3031534D02*
X3710652Y5320883D01*
X3037372Y5318278D02*
X3719094Y6000000D01*
X3252898Y5318278D02*
X3934620Y6000000D01*
X3324740Y5318278D02*
X4006462Y6000000D01*
X0D02*
X10500000D01*
X3181056Y5318278D02*
X3862778Y6000000D01*
X2959692D02*
X3641414Y5318278D01*
X2893687D02*
X3575409Y6000000D01*
X2965530Y5318278D02*
X3647252Y6000000D01*
X2821845Y5318278D02*
X3503567Y6000000D01*
X2887850D02*
X3569572Y5318278D01*
X3318903Y6000000D02*
X3706337Y5612566D01*
X3247061Y6000000D02*
X3685687Y5561374D01*
X3175219Y6000000D02*
X3673752Y5501467D01*
X3103377Y6000000D02*
X3675162Y5428214D01*
X2606319Y5318278D02*
X3288041Y6000000D01*
X2600482D02*
X3282204Y5318278D01*
X2672324Y6000000D02*
X3354046Y5318278D01*
X2528640Y6000000D02*
X3210362Y5318278D01*
X-0Y2783801D02*
X3216199Y6000000D01*
X2750003Y5318278D02*
X3431725Y6000000D01*
X2816008D02*
X3497730Y5318278D01*
X2678161D02*
X3359883Y6000000D01*
X2744166D02*
X3425888Y5318278D01*
X1522850Y6000000D02*
X2373396Y5149454D01*
X1451008Y6000000D02*
X2337475Y5113533D01*
X660744Y6000000D02*
X1942343Y4718402D01*
X0Y4005117D02*
X1994883Y6000000D01*
X0Y3645907D02*
X2354093Y6000000D01*
X1810218D02*
X2517653Y5292565D01*
X1594692Y6000000D02*
X2409317Y5185375D01*
X0Y3574064D02*
X2425935Y6000000D01*
X0Y3502222D02*
X2497778Y6000000D01*
X4292166Y5423598D02*
X4425447Y5556879D01*
X4224681Y5668959D02*
X4388123Y5505517D01*
X4289668Y5532130D02*
X4348271Y5473527D01*
X4295340Y5454616D02*
X4318391Y5431565D01*
X4285735Y5392378D02*
X4300138Y5377976D01*
X4255903Y5318278D02*
X4299206D01*
X3540266D02*
X3672876Y5450888D01*
X3396582Y5318278D02*
X3730308Y5652004D01*
X3468424Y5318278D02*
X3677392Y5527246D01*
X4258688Y5318278D02*
X4297632Y5357222D01*
X4266765Y5339506D02*
X4287993Y5318278D01*
X3612109D02*
X3683092Y5389261D01*
X3683951Y5318278D02*
X3702496Y5336823D01*
X2169429Y6000000D02*
X2851151Y5318278D01*
X2097587Y6000000D02*
X2779309Y5318278D01*
X2241271Y6000000D02*
X2922993Y5318278D01*
X1953903Y6000000D02*
X2635625Y5318278D01*
X2025745Y6000000D02*
X2707467Y5318278D01*
X2456797Y6000000D02*
X3138520Y5318278D01*
X2591660D02*
X3712096D01*
X2313113Y6000000D02*
X2994835Y5318278D01*
X2384955Y6000000D02*
X3066677Y5318278D01*
X1882060Y6000000D02*
X2566471Y5315590D01*
X1738376Y6000000D02*
X2481159Y5257217D01*
X1805582Y1212803D02*
X2149096Y1556317D01*
X2389313Y1221797D02*
X2436464Y1268949D01*
X2167968Y1215979D02*
X2328701Y1376712D01*
X2101869Y1221722D02*
X2292780Y1412633D01*
X1885953Y1221332D02*
X2185017Y1520396D01*
X1235481Y6000000D02*
X2229712Y5005770D01*
X1163639Y6000000D02*
X2193790Y4969849D01*
X1091797Y6000000D02*
X2157869Y4933928D01*
X1019955Y6000000D02*
X2121948Y4898007D01*
X0Y3861433D02*
X2138567Y6000000D01*
X1666534D02*
X2445238Y5221296D01*
X1537588Y4313646D02*
X2507142Y5283200D01*
X1379166Y6000000D02*
X2301554Y5077612D01*
X1307324Y6000000D02*
X2265633Y5041691D01*
X732587Y6000000D02*
X1978264Y4754322D01*
X588902Y6000000D02*
X1906422Y4682480D01*
X517060Y6000000D02*
X1870501Y4646559D01*
X0Y4148801D02*
X1851198Y6000000D01*
X0Y4076959D02*
X1923041Y6000000D01*
X948113D02*
X2086027Y4862086D01*
X876271Y6000000D02*
X2050106Y4826165D01*
X804429Y6000000D02*
X2014185Y4790244D01*
X0Y3933275D02*
X2066725Y6000000D01*
X0Y3214854D02*
X2785146Y6000000D01*
X0Y3286696D02*
X2713304Y6000000D01*
X0Y3143012D02*
X2856988Y6000000D01*
X0Y3430380D02*
X2569620Y6000000D01*
X0Y3358538D02*
X2641462Y6000000D01*
X0Y3071170D02*
X2928830Y6000000D01*
X-0Y2999327D02*
X3000672Y6000000D01*
X-0Y2927485D02*
X3072515Y6000000D01*
X-0Y2855643D02*
X3144357Y6000000D01*
X0Y3356007D02*
X2134108Y1221899D01*
X0Y3068638D02*
X1846999Y1221640D01*
X0Y3284165D02*
X2068589Y1215576D01*
X0Y3789591D02*
X2210409Y6000000D01*
X0Y3717749D02*
X2282251Y6000000D01*
X1599401Y1222149D02*
X2041333Y1664080D01*
X1663945Y1214851D02*
X2077254Y1628159D01*
X1409293Y2162240D02*
X2350397Y1221136D01*
X1481135Y2162240D02*
X2429667Y1213708D01*
X668593Y5679500D02*
X989093Y6000000D01*
X627771Y5710520D02*
X917251Y6000000D01*
X701914Y5640978D02*
X1060935Y6000000D01*
X519086Y5745519D02*
X773567Y6000000D01*
X578741Y5733332D02*
X845409Y6000000D01*
X743217Y5538597D02*
X1204619Y6000000D01*
X744128Y5467667D02*
X1276462Y6000000D01*
X727369Y5594591D02*
X1132777Y6000000D01*
X0Y4651696D02*
X1348304Y6000000D01*
X440751Y5739026D02*
X701725Y6000000D01*
X229692D02*
X483955Y5745737D01*
X301534Y6000000D02*
X563638Y5737895D01*
X86007Y6000000D02*
X374265Y5711742D01*
X14165Y6000000D02*
X333095Y5681071D01*
X157850Y6000000D02*
X423706Y5734143D01*
X0Y4795381D02*
X461403Y5256783D01*
X0Y4723538D02*
X532333Y5255872D01*
X445218Y6000000D02*
X1834580Y4610638D01*
X373376Y6000000D02*
X1798659Y4574717D01*
X737895Y5563638D02*
X1762738Y4538796D01*
X0Y4364328D02*
X1635672Y6000000D01*
X0Y4292486D02*
X1707514Y6000000D01*
X745737Y5483955D02*
X1726817Y4502875D01*
X734144Y5423706D02*
X1690896Y4466954D01*
X711742Y5374265D02*
X1654975Y4431033D01*
X681071Y5333094D02*
X1619053Y4395112D01*
X642889Y5299434D02*
X1583132Y4359191D01*
X596883Y5273598D02*
X1547211Y4323270D01*
X351099Y5303856D02*
X1502510Y4152445D01*
X0Y4579854D02*
X1420146Y6000000D01*
X0Y4508012D02*
X1491988Y6000000D01*
X541395Y5257244D02*
X1515453Y4283186D01*
X471389Y5255408D02*
X1502510Y4224287D01*
X0Y5223902D02*
X1352270Y3871632D01*
X0Y5080218D02*
X1294609Y3785608D01*
X0Y5441960D02*
X558040Y6000000D01*
X0Y5657486D02*
X342514Y6000000D01*
X0Y5370118D02*
X629882Y6000000D01*
X0Y5585644D02*
X414356Y6000000D01*
X0Y5513802D02*
X486198Y6000000D01*
X0Y5654955D02*
X303856Y5351099D01*
X0Y5082749D02*
X289480Y5372229D01*
X0Y5942323D02*
X299434Y5642889D01*
X0Y5870481D02*
X273598Y5596883D01*
X0Y5873012D02*
X126988Y6000000D01*
X0Y5944855D02*
X55145Y6000000D01*
X0Y5798639D02*
X257244Y5541395D01*
X0Y5801170D02*
X198830Y6000000D01*
X0Y5729328D02*
X270672Y6000000D01*
X0Y5226433D02*
X254481Y5480914D01*
X0Y5154591D02*
X266668Y5421259D01*
X0Y5726797D02*
X255408Y5471389D01*
X0Y5298275D02*
X260974Y5559249D01*
X0Y5511270D02*
X1502510Y4008761D01*
X0Y5583113D02*
X1502510Y4080603D01*
X0Y5439428D02*
X1502510Y3936918D01*
X0Y4436170D02*
X1563830Y6000000D01*
X0Y4220644D02*
X1779356Y6000000D01*
X0Y4649165D02*
X1502510Y3146655D01*
X0Y4577323D02*
X1502510Y3074813D01*
X0Y4936533D02*
X1502510Y3434024D01*
X0Y4721007D02*
X1502510Y3218497D01*
X0Y4867223D02*
X405409Y5272631D01*
X0Y4939065D02*
X359022Y5298086D01*
X0Y5295744D02*
X1400545Y3895199D01*
X0Y5010907D02*
X320500Y5331407D01*
X0Y5367586D02*
X1469080Y3898506D01*
X0Y4864691D02*
X1502510Y3362181D01*
X0Y4792849D02*
X1502510Y3290339D01*
X0Y5152060D02*
X1316884Y3835176D01*
X0Y5008376D02*
X1294293Y3714083D01*
X1502510Y3888340D02*
Y4229128D01*
X1473123Y3897714D02*
X1502510Y3927100D01*
X1398031Y3894463D02*
X1502510Y3998942D01*
X1478351Y3601867D02*
X1502510Y3577708D01*
Y2958110D02*
Y3610046D01*
X1406825Y3601550D02*
X1502510Y3505866D01*
X1447117Y2937760D02*
X1502510Y2993153D01*
X1407240Y2937760D02*
X1482160D01*
X1502510Y2958110D01*
X0Y4361796D02*
X1424037Y2937760D01*
X0Y4218112D02*
X1407240Y2810872D01*
Y2897883D02*
X1447117Y2937760D01*
X1407240Y2843760D02*
Y2937760D01*
X1345335Y2692294D02*
X1407240Y2754199D01*
Y2692294D02*
Y2843760D01*
Y2692294D02*
Y2843760D01*
Y2162240D02*
X1543173D01*
X937975Y1279144D02*
X1682122Y2023291D01*
X827314Y1240325D02*
X1646201Y2059212D01*
X1123810Y1249453D02*
X1789885Y1915528D01*
X1168387Y1222188D02*
X1825806Y1879607D01*
X1011975Y1281302D02*
X1718043Y1987370D01*
X1072307Y1269792D02*
X1753964Y1951449D01*
X1308008Y2692294D02*
X1402007D01*
X0Y3643375D02*
X1298673Y2344702D01*
X0Y3571533D02*
X1407240Y2164293D01*
X0Y3858902D02*
X1308008Y2550894D01*
X0Y3715217D02*
X1290299Y2424918D01*
X1384702Y2258673D02*
X1407240Y2236135D01*
Y2162240D02*
Y2251818D01*
X1308008Y2654966D02*
X1345335Y2692294D01*
X1308008Y2474894D02*
Y2692294D01*
X0Y4505481D02*
X1502510Y3002971D01*
X0Y4433639D02*
X1489019Y2944619D01*
X0Y4289954D02*
X1407240Y2882714D01*
X0Y4146270D02*
X1407240Y2739030D01*
X-0Y2711959D02*
X1502510Y4214469D01*
X-0Y2137222D02*
X1461474Y3598696D01*
X-0Y2065380D02*
X1502510Y3567890D01*
X-0Y2640117D02*
X1502510Y4142627D01*
X-0Y2568275D02*
X1502510Y4070785D01*
X0Y4074428D02*
X1382134Y2692294D01*
X0Y4002586D02*
X1310292Y2692294D01*
X0Y3930744D02*
X1308008Y2622736D01*
X-0Y2496432D02*
X1296665Y3793098D01*
X0Y3787059D02*
X1308008Y2479052D01*
X-0Y2280906D02*
X1348612Y3629519D01*
X-0Y2209064D02*
X1395612Y3604676D01*
X-0Y2424590D02*
X1293415Y3718005D01*
X-0Y2352748D02*
X1314318Y3667066D01*
X-0Y1778011D02*
X1502510Y3280521D01*
X-0Y1849853D02*
X1502510Y3352363D01*
X-0Y1706169D02*
X1502510Y3208679D01*
X-0Y1993538D02*
X1502510Y3496048D01*
X-0Y1921695D02*
X1502510Y3424205D01*
X-0Y2853112D02*
X1631758Y1221354D01*
X-0Y2781270D02*
X1564614Y1216656D01*
X-0Y1634327D02*
X1502510Y3136837D01*
X-0Y1562485D02*
X1502510Y3064995D01*
X-0Y1275116D02*
X1308008Y2583124D01*
X-0Y1346958D02*
X1308008Y2654966D01*
X-0Y2350217D02*
X1084197Y1266020D01*
X-0Y1490643D02*
X1407240Y2897883D01*
X-0Y1418801D02*
X1407240Y2826041D01*
X-0Y2134691D02*
X872682Y1262009D01*
X-0Y2062849D02*
X824299Y1238550D01*
X-0Y2278375D02*
X996048Y1282327D01*
X-0Y2206533D02*
X928884Y1277649D01*
X4627321Y1099476D02*
X5726797Y-0D01*
X4555479Y1099476D02*
X5654955Y-0D01*
X4759621D02*
X5859098Y1099476D01*
X4483636D02*
X5583113Y-0D01*
X4544095D02*
X5643571Y1099476D01*
X4831464Y-0D02*
X5930940Y1099476D01*
X4842847D02*
X5942323Y-0D01*
X4299966Y1099476D02*
X6200034D01*
X4771005D02*
X5870481Y-0D01*
X4326063Y1003284D02*
X4422255Y1099476D01*
X4313844Y1062906D02*
X4350413Y1099476D01*
X4325148Y930527D02*
X4494097Y1099476D01*
X4291682Y825218D02*
X4565940Y1099476D01*
X4411794D02*
X5511271Y-0D01*
X4472253D02*
X5571729Y1099476D01*
X4339952D02*
X5439429Y-0D01*
X4400411D02*
X5499887Y1099476D01*
X4615937Y-0D02*
X5715414Y1099476D01*
X4328569Y-0D02*
X5428045Y1099476D01*
X4699163D02*
X5798639Y-0D01*
X4184884D02*
X5284361Y1099476D01*
X4256727Y-0D02*
X5356203Y1099476D01*
X4327748Y967997D02*
X5295744Y-0D01*
X4687779D02*
X5787256Y1099476D01*
X4317513Y1050073D02*
X5367586Y-0D01*
X4320408Y903494D02*
X5223902Y-0D01*
X4041200D02*
X5140677Y1099476D01*
X3969358Y-0D02*
X5068834Y1099476D01*
X4113042Y-0D02*
X5212519Y1099476D01*
X3825674Y-0D02*
X4925150Y1099476D01*
X3897516Y-0D02*
X4996992Y1099476D01*
X4278151Y802066D02*
X5080218Y-0D01*
X4303006Y849054D02*
X5152060Y-0D01*
X4209877Y726656D02*
X4936534Y-0D01*
X4246971Y761404D02*
X5008376Y-0D01*
X3564560Y1099476D02*
X3732034D01*
X3693373D02*
X3721053Y1071797D01*
X3621531Y1099476D02*
X3707218Y1013789D01*
X1543173Y2162240D02*
X2518010Y1187403D01*
X3575623Y1043107D02*
X3631992Y1099476D01*
X3610626Y1006268D02*
X3703834Y1099476D01*
X2305591Y1209917D02*
X2400543Y1304870D01*
X2217968Y1194137D02*
X2364622Y1340791D01*
X1986175Y1177870D02*
X2256859Y1448554D01*
X0Y3499691D02*
X2294489Y1205202D01*
X0Y3427849D02*
X2250840Y1177009D01*
X2446710Y1207352D02*
X2472385Y1233028D01*
X2491394Y1180194D02*
X2508306Y1197107D01*
X3753832Y-0D02*
X4853308Y1099476D01*
X3681990Y-0D02*
X4781466Y1099476D01*
X3538305Y-0D02*
X4637782Y1099476D01*
X3610147Y-0D02*
X4709624Y1099476D01*
X3679202Y754436D02*
X4433639Y-0D01*
X3698752Y806728D02*
X4505481Y-0D01*
X3596394Y632825D02*
X3758548Y794979D01*
X3639641Y604230D02*
X3790712Y755301D01*
X3650761Y974560D02*
X3710848Y1034648D01*
X3680930Y932887D02*
X3704567Y956525D01*
X3699567Y879683D02*
X3713855Y893971D01*
X3570854Y1078311D02*
X3705416Y943749D01*
X3699992Y877330D02*
X3729535Y847788D01*
X3698831Y807105D02*
X3732603Y840876D01*
X4116997Y675852D02*
X4792849Y-0D01*
X3702325Y451388D02*
X3923894Y672956D01*
X4166770Y697921D02*
X4864692Y-0D01*
X3695375Y516280D02*
X3872911Y693816D01*
X3648336Y713460D02*
X4361797Y-0D01*
X3692346Y525766D02*
X4218112Y-0D01*
X4058989Y662018D02*
X4721007Y-0D01*
X3658759Y343827D02*
X4002586Y-0D01*
X3686473Y387955D02*
X4074428Y-0D01*
X3672867Y565614D02*
X3828773Y721520D01*
X3107253Y-0D02*
X3414644Y307391D01*
X3607512Y682442D02*
X4289955Y-0D01*
X3466463D02*
X4161582Y695118D01*
X3892988Y684334D02*
X4577323Y-0D01*
X3322779D02*
X3983516Y660737D01*
X3394621Y-0D02*
X4056273Y661652D01*
X3701726Y444544D02*
X4146270Y-0D01*
X3988949Y660216D02*
X4649165Y-0D01*
X3572624Y286278D02*
X3858902Y-0D01*
X3620969Y309775D02*
X3930744Y-0D01*
X3345955Y297420D02*
X3643375Y-0D01*
X3179095D02*
X3463979Y284884D01*
X3388432Y326786D02*
X3715218Y-0D01*
X3068462Y287545D02*
X3356007Y-0D01*
X3115983Y311866D02*
X3427849Y-0D01*
X3291672Y279861D02*
X3571533Y-0D01*
X3509454Y277605D02*
X3787060Y-0D01*
X3216596Y283095D02*
X3499691Y-0D01*
X3250937D02*
X3528871Y277933D01*
X2901450Y310872D02*
X3212323Y-0D01*
X2891726D02*
X3185574Y293847D01*
X3035410Y-0D02*
X3323215Y287804D01*
X2819884Y-0D02*
X3141476Y321592D01*
X2963568Y-0D02*
X3242121Y278552D01*
X3006670Y277495D02*
X3284165Y-0D01*
X2748042D02*
X3026444Y278402D01*
X2788024Y280614D02*
X3068639Y-0D01*
X2610945Y314009D02*
X2924954Y-0D01*
X2604358D02*
X2909772Y305414D01*
X2676200Y-0D02*
X2959973Y283773D01*
X2715238Y281558D02*
X2996796Y-0D01*
X2532516D02*
X2823360Y290844D01*
X2564232Y288880D02*
X2853112Y-0D01*
X2407306Y302122D02*
X2709428Y-0D01*
X2388831D02*
X2681128Y292297D01*
X2841323Y299158D02*
X3140481Y-0D01*
X2316989D02*
X2636268Y319279D01*
X2336634Y300952D02*
X2637586Y-0D01*
X2460674D02*
X2738785Y278111D01*
X2503743Y277527D02*
X2781270Y-0D01*
X-0D02*
X10499999D01*
X2284288Y281455D02*
X2565744Y-0D01*
X2105856Y316203D02*
X2422059Y-0D01*
X2101463D02*
X2404953Y303490D01*
X2173305Y-0D02*
X2456044Y282738D01*
X2029621Y-0D02*
X2324325Y294704D01*
X2059936Y290281D02*
X2350217Y-0D01*
X2213573Y280328D02*
X2493902Y-0D01*
X2245147D02*
X2524212Y279065D01*
X1957779Y-0D02*
X2235561Y277782D01*
X2000683Y277692D02*
X2278375Y-0D01*
X1265826Y1104100D02*
X1933569Y1771844D01*
X1239430Y1149546D02*
X1897648Y1807765D01*
X1285120Y1051552D02*
X1969491Y1735923D01*
X0Y3140480D02*
X1929435Y1211046D01*
X0Y3212323D02*
X2018906Y1193417D01*
X1942251Y1205788D02*
X2220938Y1484475D01*
X1713083Y1192147D02*
X2113175Y1592238D01*
X1295182Y989772D02*
X2005412Y1700001D01*
X1206855Y1188813D02*
X1861727Y1843686D01*
X1279220Y1070997D02*
X1362845Y987372D01*
X1206855Y1188813D02*
X1861727Y1843686D01*
X-0Y915906D02*
X1357025Y2272931D01*
X1371784Y994532D02*
X1424609Y1047357D01*
X1295527Y982848D02*
X1328981Y949394D01*
X1290379Y913127D02*
X1334726Y957474D01*
X1290849Y915683D02*
X1305708Y900824D01*
X1275209Y859482D02*
X1297419Y837272D01*
X1251750Y811099D02*
X1422320Y640528D01*
X1235057Y785962D02*
X1297271Y848177D01*
X-0Y700379D02*
X1461861Y2162240D01*
X1221806Y769200D02*
X1375064Y615942D01*
X1185909Y733256D02*
X1338206Y580959D01*
X520936Y-0D02*
X1306906Y785969D01*
X592778Y-0D02*
X1330975Y738197D01*
X444687Y642172D02*
X685008Y882493D01*
X499584Y625227D02*
X705347Y830990D01*
X375735Y645062D02*
X673498Y942825D01*
X264386Y605555D02*
X675656Y1016825D01*
X582919Y564877D02*
X765987Y747945D01*
X582919Y564877D02*
X765987Y747945D01*
X545142Y598942D02*
X732612Y786413D01*
X449094Y-0D02*
X1168838Y719743D01*
X-0Y2709428D02*
X1514055Y1195373D01*
X-0Y2637586D02*
X1474442Y1163143D01*
X-0Y2565744D02*
X1444807Y1120936D01*
X-0Y2996796D02*
X1790007Y1206789D01*
X-0Y2924954D02*
X1745602Y1179352D01*
X-0Y2422059D02*
X1406769Y1015290D01*
X-0Y987748D02*
X1319716Y2307464D01*
X-0Y1203274D02*
X1308008Y2511282D01*
X-0Y2493902D02*
X1426884Y1067017D01*
X-0Y1991007D02*
X782400Y1208606D01*
X-0Y1919165D02*
X746456Y1172709D01*
X-0Y1847322D02*
X716464Y1130858D01*
X-0Y1131432D02*
X1289721Y2421154D01*
X-0Y1059590D02*
X1295147Y2354737D01*
X-0Y1631796D02*
X672451Y959345D01*
X-0Y1559954D02*
X688489Y871465D01*
X-0Y1775480D02*
X692949Y1082531D01*
X-0Y1703638D02*
X677238Y1026400D01*
X-0Y556695D02*
X1574359Y2131054D01*
X-0Y628537D02*
X1533703Y2162240D01*
X-0Y484853D02*
X1610280Y2095133D01*
X-0Y844064D02*
X1407240Y2251304D01*
X-0Y772221D02*
X1407240Y2179462D01*
X-0Y1344428D02*
X1344428Y-0D01*
X-0Y1272585D02*
X1272585Y-0D01*
X-0Y1488112D02*
X1488112Y-0D01*
X-0Y1416270D02*
X1416270Y-0D01*
X-0Y1128901D02*
X507196Y621705D01*
X-0Y1057059D02*
X411047Y646012D01*
X-0Y413011D02*
X714475Y1127486D01*
X-0Y-0D02*
X0Y6000000D01*
X-0Y1200743D02*
X1200743Y-0D01*
X-0Y841533D02*
X247877Y593656D01*
X-0Y769691D02*
X211374Y558317D01*
X-0Y985217D02*
X345144Y640073D01*
X-0Y913375D02*
X292041Y621334D01*
X1910145Y296388D02*
X2206533Y-0D01*
X1831889Y302801D02*
X2134691Y-0D01*
X1598568D02*
X1900188Y301620D01*
X1600717Y318447D02*
X1919165Y-0D01*
X1742252D02*
X2022199Y279946D01*
X1885937Y-0D02*
X2176745Y290808D01*
X1670410Y-0D02*
X1952194Y281783D01*
X1711647Y279360D02*
X1991007Y-0D01*
X1144058Y703264D02*
X1311505Y535817D01*
X1095731Y679749D02*
X1297736Y477744D01*
X1039600Y664038D02*
X1311900Y391738D01*
X1555576Y291747D02*
X1847322Y-0D01*
X1497502Y277978D02*
X1775480Y-0D01*
X1526726D02*
X1826526Y299800D01*
X1411497Y292141D02*
X1703638Y-0D01*
X1311200D02*
X1626003Y314804D01*
X1814094Y-0D02*
X2131111Y317016D01*
X884665Y675289D02*
X1559954Y-0D01*
X972545Y659250D02*
X1631796Y-0D01*
X1454884D02*
X1732457Y277572D01*
X1780468Y282380D02*
X2062849Y-0D01*
X1239357D02*
X1520434Y281077D01*
X1383042Y-0D02*
X1672426Y289384D01*
X736463Y-0D02*
X1410169Y673707D01*
X808305Y-0D02*
X1299152Y490847D01*
X880147Y-0D02*
X1302101Y421954D01*
X646012Y411047D02*
X1057059Y-0D01*
X664620D02*
X1365515Y700894D01*
X1095673Y-0D02*
X1395479Y299806D01*
X1167515Y-0D02*
X1448426Y280911D01*
X951989Y-0D02*
X1322486Y370496D01*
X1023831Y-0D02*
X1354001Y330170D01*
X645949Y412381D02*
X903248Y669680D01*
X635081Y473355D02*
X850700Y688974D01*
X636390Y330980D02*
X965028Y659618D01*
X613175Y523291D02*
X805254Y715370D01*
X515397Y182451D02*
X697848Y-0D01*
X593656Y247877D02*
X841533Y-0D01*
X-0Y266796D02*
X266796Y-0D01*
X463846Y162160D02*
X626006Y-0D01*
X-0Y341169D02*
X194445Y535614D01*
X-0Y554164D02*
X153740Y400424D01*
X-0Y482322D02*
X169801Y312521D01*
X-0Y697848D02*
X182451Y515397D01*
X-0Y626006D02*
X162160Y463846D01*
X-0Y125642D02*
X174773Y300416D01*
X-0Y53800D02*
X201058Y254858D01*
X-0Y269327D02*
X154938Y424265D01*
X-0Y197484D02*
X157828Y355313D01*
X621705Y507196D02*
X1128901Y-0D01*
X621334Y292041D02*
X913375Y-0D01*
X640073Y345144D02*
X985217Y-0D01*
X-0Y410480D02*
X410480Y-0D01*
X377252D02*
X1041673Y664421D01*
X400424Y153740D02*
X554164Y-0D01*
X558317Y211374D02*
X769691Y-0D01*
X305410D02*
X469020Y163610D01*
X312521Y169801D02*
X482322Y-0D01*
X18041D02*
X235122Y217081D01*
X18041Y-0D02*
X235122Y217081D01*
X89883Y-0D02*
X276709Y186825D01*
X-0Y194954D02*
X194954Y-0D01*
X-0Y338638D02*
X338638Y-0D01*
X161726D02*
X326645Y164919D01*
X233568Y-0D02*
X387619Y154051D01*
X-0Y123112D02*
X123112Y-0D01*
X-0Y51269D02*
X51269Y-0D01*
D11*
X1550000Y2397000D02*
D03*
Y2303000D02*
D03*
Y2703000D02*
D03*
Y2797000D02*
D03*
X2250000Y2703000D02*
D03*
Y2797000D02*
D03*
X2950000Y2703000D02*
D03*
Y2797000D02*
D03*
X3650000Y2703000D02*
D03*
Y2797000D02*
D03*
X4350000Y2703000D02*
D03*
Y2797000D02*
D03*
X5050000Y2703000D02*
D03*
Y2797000D02*
D03*
X5750000Y2703000D02*
D03*
Y2797000D02*
D03*
X6475000Y2703000D02*
D03*
Y2797000D02*
D03*
X1700000Y2703000D02*
D03*
Y2797000D02*
D03*
X2400000Y2703000D02*
D03*
Y2797000D02*
D03*
X3100000Y2703000D02*
D03*
Y2797000D02*
D03*
X3800000Y2703000D02*
D03*
Y2797000D02*
D03*
X4500000Y2703000D02*
D03*
Y2797000D02*
D03*
X5200000Y2703000D02*
D03*
Y2797000D02*
D03*
X5900000Y2703000D02*
D03*
Y2797000D02*
D03*
X6625000Y2703000D02*
D03*
Y2797000D02*
D03*
X1700000Y2397000D02*
D03*
Y2303000D02*
D03*
X2400000D02*
D03*
Y2397000D02*
D03*
X2250000Y2303000D02*
D03*
Y2397000D02*
D03*
X3100000Y2303000D02*
D03*
Y2397000D02*
D03*
X2950000Y2303000D02*
D03*
Y2397000D02*
D03*
X3800000Y2303000D02*
D03*
Y2397000D02*
D03*
X3650000Y2303000D02*
D03*
Y2397000D02*
D03*
X4500000Y2303000D02*
D03*
Y2397000D02*
D03*
X4350000Y2303000D02*
D03*
Y2397000D02*
D03*
X5200000Y2303000D02*
D03*
Y2397000D02*
D03*
X5050000Y2303000D02*
D03*
Y2397000D02*
D03*
X5900000Y2303000D02*
D03*
Y2397000D02*
D03*
X5750000Y2303000D02*
D03*
Y2397000D02*
D03*
X6625000Y2303000D02*
D03*
Y2397000D02*
D03*
X6475000Y2303000D02*
D03*
Y2397000D02*
D03*
D12*
X1708421Y2549534D02*
D03*
X1802420D02*
D03*
X1542767D02*
D03*
X1448767D02*
D03*
X2497000Y2550000D02*
D03*
X2403000D02*
D03*
X2153000D02*
D03*
X2247000D02*
D03*
X3197000D02*
D03*
X3103000D02*
D03*
X2853000D02*
D03*
X2947000D02*
D03*
X3897000D02*
D03*
X3803000D02*
D03*
X3553000D02*
D03*
X3647000D02*
D03*
X4597000D02*
D03*
X4503000D02*
D03*
X4253000D02*
D03*
X4347000D02*
D03*
X5297000D02*
D03*
X5203000D02*
D03*
X4953000D02*
D03*
X5047000D02*
D03*
X5997000D02*
D03*
X5903000D02*
D03*
X5653000D02*
D03*
X5747000D02*
D03*
X6721905Y2549428D02*
D03*
X6627905D02*
D03*
X6372938Y2550335D02*
D03*
X6466938D02*
D03*
D13*
X5310000Y2400000D02*
Y2547000D01*
X4940000Y2400000D02*
Y2547000D01*
X1550000Y2797000D02*
Y2836800D01*
X4601090Y5164668D02*
X4611008Y5154750D01*
Y5314989D02*
Y5535750D01*
X7111008Y878489D02*
X7222208Y989689D01*
X7111008Y654750D02*
Y878489D01*
X1440000Y2400000D02*
Y2547000D01*
X1810000Y2400000D02*
Y2547000D01*
X1700000Y2797000D02*
Y2836800D01*
X1656120Y2880680D02*
X1700000Y2836800D01*
X2605846Y5164668D02*
X4601090D01*
X6735000Y2400000D02*
Y2547000D01*
X6365000Y2400000D02*
Y2547000D01*
X5640000Y2400000D02*
Y2547000D01*
X6010000Y2400000D02*
Y2547000D01*
X6277808Y5108689D02*
Y5200811D01*
X6389008Y5312011D01*
X6475000Y2816900D02*
Y2861800D01*
X6389008Y5312011D02*
Y5535750D01*
Y5154750D02*
X6404258Y5139499D01*
X6475000Y2861800D02*
X6592867Y2979667D01*
X2140000Y2400000D02*
Y2547000D01*
X2510000Y2400000D02*
Y2547000D01*
X3210000Y2400000D02*
Y2547000D01*
X2840000Y2400000D02*
Y2547000D01*
X3540000Y2400000D02*
Y2547000D01*
X3910000Y2400000D02*
Y2547000D01*
X4240000Y2400000D02*
Y2547000D01*
X1656120Y2880680D02*
Y4214941D01*
X2605846Y5164668D01*
X1550000Y2836800D02*
X1621870Y2908670D01*
Y4229128D01*
X2591660Y5198918D01*
X4494937D01*
X4611008Y5314989D01*
X8635008Y654750D02*
Y878489D01*
X8746208Y989689D01*
X7873008Y654750D02*
Y878489D01*
X7984208Y989689D01*
X8127008Y654750D02*
Y878489D01*
X8238208Y989689D01*
X4610000Y2400000D02*
Y2547000D01*
X7365008Y654750D02*
Y878489D01*
X7476208Y989689D02*
Y1144302D01*
X7365008Y878489D02*
X7476208Y989689D01*
X7619008Y654750D02*
Y878489D01*
X7730208Y989689D01*
X6625000Y2303000D02*
X8489544D01*
X6557800Y2259006D02*
Y2262000D01*
X6516800Y2303000D02*
X6557800Y2262000D01*
Y2259006D02*
X6591847Y2224959D01*
X6475000Y2303000D02*
X6516800D01*
X8889008Y654750D02*
X8924571Y690313D01*
X6924479Y2268730D02*
X8475321D01*
X2665600Y1218836D02*
X7019393D01*
X2795245Y1253086D02*
X6839874D01*
X7222208Y989689D02*
Y1166858D01*
X7730208Y989689D02*
Y1066996D01*
X7984208Y989689D02*
Y1095358D01*
X8381008Y654750D02*
Y878489D01*
X8458232Y955713D01*
X8238208Y989689D02*
Y1028992D01*
X6277808Y5108689D02*
X6370008Y5016489D01*
Y4885039D02*
Y5016489D01*
Y4885039D02*
X6592867Y4662180D01*
Y2979667D02*
Y4662180D01*
X6627137Y4627910D02*
X6627208Y4627839D01*
Y2824208D02*
Y4627839D01*
D14*
X5750000Y2397000D02*
Y2703000D01*
X5900000Y2397000D02*
Y2703000D01*
Y2797000D02*
Y2833620D01*
X6135008Y5154750D02*
X6153638Y5136120D01*
X6026988Y5110007D02*
Y5199493D01*
X6135008Y5307513D01*
Y5535750D01*
X6625000Y2397000D02*
Y2703000D01*
X6475000Y2397000D02*
Y2703000D01*
X6026988Y5110007D02*
X6119348Y5017646D01*
X6153638Y4065751D02*
Y5136120D01*
X6404258Y5030704D02*
Y5139499D01*
X1550000Y2397000D02*
Y2703000D01*
X1700000Y2397000D02*
Y2703000D01*
X2250000Y2397000D02*
Y2703000D01*
X2400000Y2397000D02*
Y2703000D01*
X2250000Y2797000D02*
Y2833620D01*
X2703663Y4832034D02*
X4812986D01*
X4756988Y5203367D02*
X4865008Y5311387D01*
X4812986Y4832034D02*
X4846028Y4865076D01*
Y5020417D01*
X4865008Y5311387D02*
Y5535750D01*
X2703663Y4783541D02*
X4812986D01*
X4880318Y4850873D01*
Y5139440D01*
X4865008Y5154750D02*
X4880318Y5139440D01*
X2400000Y4479878D02*
X2703663Y4783541D01*
X2250000Y2833620D02*
X2365710Y2949330D01*
X2400000Y2797000D02*
Y4479878D01*
X2365710Y2949330D02*
Y4494081D01*
X2703663Y4832034D01*
X5050000Y2397000D02*
Y2703000D01*
X5200000Y2397000D02*
Y2703000D01*
X4756988Y5109458D02*
Y5203367D01*
Y5109458D02*
X4846028Y5020417D01*
X5750000Y2797000D02*
Y2833620D01*
X5806359Y2889979D01*
X5840649Y2892971D02*
X5900000Y2833620D01*
X5200000Y2797000D02*
Y2833620D01*
X5772988Y5110007D02*
Y5203367D01*
X5772713Y5109732D02*
X5862028Y5020417D01*
X5772988Y5203367D02*
X5881008Y5311387D01*
Y5535750D01*
X5084290Y2949330D02*
X5200000Y2833620D01*
X5084290Y2949330D02*
Y3315124D01*
X5896318Y4127152D01*
X5050000Y2797000D02*
Y3336396D01*
X5862028Y4148424D01*
X2950000Y2397000D02*
Y2703000D01*
X3100000Y2397000D02*
Y2703000D01*
X3650000Y2397000D02*
Y2703000D01*
X3800000Y2397000D02*
Y2703000D01*
X4350000Y2397000D02*
Y2703000D01*
X4500000Y2397000D02*
Y2703000D01*
X5010988Y5110007D02*
Y5203367D01*
X5010713Y5109732D02*
X5100028Y5020417D01*
X5010988Y5203367D02*
X5119008Y5311387D01*
Y5535750D01*
X2950000Y2797000D02*
Y2829177D01*
X3065710Y2944887D01*
X3650000Y2797000D02*
Y2833620D01*
X3766900Y2950520D01*
X5264713Y5109732D02*
X5354028Y5020417D01*
X5264988Y5110007D02*
Y5203367D01*
X5373008Y5311387D01*
Y5535750D01*
X4621922Y3945213D02*
X5336896D01*
X4607718Y3979503D02*
X5322693D01*
X5896318Y4127152D02*
Y5139440D01*
X5862028Y4148424D02*
Y5020417D01*
X5322693Y3979503D02*
X5608028Y4264838D01*
X5336896Y3945213D02*
X5642318Y4250635D01*
X5518713Y5109732D02*
X5608028Y5020417D01*
X5518988Y5110007D02*
Y5203367D01*
X5608028Y4264838D02*
Y5020417D01*
X5518988Y5203367D02*
X5627008Y5311387D01*
Y5535750D01*
X5642318Y4250635D02*
Y5139440D01*
X4500000Y2797000D02*
Y3823291D01*
X4621922Y3945213D01*
X4465710Y3837494D02*
X4607718Y3979503D01*
X4350000Y2797000D02*
Y2829276D01*
X4465710Y2944986D01*
Y3837494D01*
X5806359Y2889979D02*
Y3766965D01*
X6119348Y4079954D01*
Y5017646D01*
X5840649Y2892971D02*
Y3752761D01*
X6153638Y4065751D01*
X3065710Y2944887D02*
Y4383777D01*
X3258702Y4576769D01*
X3100000Y4369573D02*
X3272905Y4542479D01*
X3100000Y2797000D02*
Y4369573D01*
X3272905Y4542479D02*
X5005517D01*
X5134318Y4671280D01*
Y5139440D01*
X3258702Y4576769D02*
X4991314D01*
X5100028Y4685483D01*
Y5020417D01*
X3801190Y2791820D02*
Y4160559D01*
X3876883Y4236252D01*
X3766900Y2950520D02*
Y4174762D01*
X3862680Y4270542D01*
X3876883Y4236252D02*
X5217443D01*
X5388318Y4407128D01*
Y5139440D01*
X3862680Y4270542D02*
X5203240D01*
X5354028Y4421331D01*
Y5020417D01*
X8489544Y2303000D02*
X8997028Y1795516D01*
X6591847Y2224959D02*
X6687393D01*
X6731164Y2268730D01*
X6924479D01*
X8889008Y1035750D02*
X8962738Y1109480D01*
Y1781313D01*
X8475321Y2268730D02*
X8962738Y1781313D01*
X1700000Y2222735D02*
Y2303000D01*
X1550000D02*
X1571242D01*
X2655406Y1218836D01*
X2665600D01*
X2411027Y1511708D02*
X2421221D01*
X7161633Y1253106D02*
X7222208Y1192531D01*
Y1166858D02*
Y1192531D01*
X2421221Y1511708D02*
X2679824Y1253106D01*
X1700000Y2222735D02*
X2411027Y1511708D01*
X2679824Y1253106D02*
X7161633D01*
X7111008Y1035750D02*
X7187938Y1112680D01*
Y1152635D01*
X7187918Y1152655D02*
X7187938Y1152635D01*
X7187918Y1152655D02*
Y1178328D01*
X7147430Y1218816D02*
X7187918Y1178328D01*
X7019393Y1218816D02*
X7147430D01*
X2400000Y2201493D02*
Y2303000D01*
Y2201493D02*
X3202891Y1398602D01*
X2250000Y2303000D02*
X3188688Y1364312D01*
X3202891Y1398602D02*
X7221908D01*
X7476208Y1144302D01*
X3188688Y1364312D02*
X7207705D01*
X7365008Y1207009D01*
Y1035750D02*
Y1207009D01*
X2950000Y2017110D02*
X3448546Y1518563D01*
X2950000Y2017110D02*
Y2303000D01*
X2984290Y2031313D02*
X3462749Y1552853D01*
X2984290Y2031313D02*
Y2187290D01*
X3100000Y2303000D01*
X3448546Y1518563D02*
X7337578D01*
X7619008Y1237133D01*
Y1035750D02*
Y1237133D01*
X3462749Y1552853D02*
X7351782D01*
X7730208Y1174426D01*
Y1066996D02*
Y1174426D01*
X3977435Y1665025D02*
X7452362D01*
X7873008Y1244378D01*
Y1035750D02*
Y1244378D01*
X3991638Y1699315D02*
X7466565D01*
X3650000Y1992460D02*
X3977435Y1665025D01*
X3650000Y1992460D02*
Y2303000D01*
X3684290Y2006663D02*
X3991638Y1699315D01*
X3684290Y2006663D02*
Y2156964D01*
X3800000Y2272674D01*
Y2303000D01*
X8127008Y1035750D02*
Y1322266D01*
X7648715Y1800559D02*
X8127008Y1322266D01*
X4563381Y1800559D02*
X7648715D01*
X4350000Y2013940D02*
Y2303000D01*
Y2013940D02*
X4563381Y1800559D01*
X4500000Y2266232D02*
Y2303000D01*
X4384290Y2150522D02*
X4500000Y2266232D01*
X4384290Y2028143D02*
Y2150522D01*
Y2028143D02*
X4577584Y1834849D01*
X7662918D01*
X5050000Y2303000D02*
X5415261Y1937739D01*
X8458232Y955713D02*
X8489028Y986509D01*
X8381008Y1035750D02*
Y1434657D01*
X7877926Y1937739D02*
X8381008Y1434657D01*
X5415261Y1937739D02*
X7877926D01*
X5200000Y2201493D02*
Y2303000D01*
Y2201493D02*
X5429465Y1972029D01*
X7896023D01*
X8113816Y2086043D02*
X8635008Y1564851D01*
Y1035750D02*
Y1564851D01*
X5750000Y2269973D02*
Y2303000D01*
Y2269973D02*
X5933929Y2086043D01*
X8113816D01*
X5900000Y2168466D02*
Y2303000D01*
Y2168466D02*
X5948133Y2120333D01*
X8128019D01*
X8163526Y1151995D02*
Y1334241D01*
Y1151995D02*
X8235028Y1080493D01*
Y1032172D02*
Y1080493D01*
Y1032172D02*
X8238208Y1028992D01*
X7662918Y1834849D02*
X8163526Y1334241D01*
X8415608Y1153914D02*
Y1452444D01*
Y1153914D02*
X8489028Y1080493D01*
Y986509D02*
Y1080493D01*
X7896023Y1972029D02*
X8415608Y1452444D01*
X8678518Y1145004D02*
Y1569834D01*
Y1145004D02*
X8743028Y1080493D01*
Y992869D02*
Y1080493D01*
Y992869D02*
X8746208Y989689D01*
X8128019Y2120333D02*
X8678518Y1569834D01*
X7466565Y1699315D02*
X7908815Y1257064D01*
Y1170752D02*
Y1257064D01*
Y1170752D02*
X7984208Y1095358D01*
X8997028Y1117986D02*
Y1795516D01*
Y1117986D02*
X9146750Y968264D01*
X8889008Y654750D02*
X9081305D01*
X9146750Y720195D01*
Y968264D01*
X6404258Y5030704D02*
X6404278Y5030684D01*
Y4899234D02*
Y5030684D01*
Y4899234D02*
X6627137Y4676375D01*
Y4627910D02*
Y4676375D01*
D15*
X6516008Y5345250D02*
X6692608D01*
X9016008Y464250D02*
X9192608D01*
X9016008Y287650D02*
Y464250D01*
X3516008Y845250D02*
X3692608D01*
X3516008Y464250D02*
X3692608D01*
X3516008Y287650D02*
Y464250D01*
D16*
Y845250D02*
D03*
X3389008Y1035750D02*
D03*
Y654750D02*
D03*
X3262008Y845250D02*
D03*
X3135008Y1035750D02*
D03*
Y654750D02*
D03*
X3008008Y845250D02*
D03*
X2881008Y1035750D02*
D03*
Y654750D02*
D03*
X2754008Y845250D02*
D03*
X2627008Y1035750D02*
D03*
Y654750D02*
D03*
X2500008Y845250D02*
D03*
X2373008Y1035750D02*
D03*
Y654750D02*
D03*
X2246008Y845250D02*
D03*
X2119008Y1035750D02*
D03*
Y654750D02*
D03*
X1992008Y845250D02*
D03*
X1865008Y1035750D02*
D03*
Y654750D02*
D03*
X1738008Y845250D02*
D03*
X1611008Y1035750D02*
D03*
Y654750D02*
D03*
X1484008Y845250D02*
D03*
Y464250D02*
D03*
X1738008D02*
D03*
X1992008D02*
D03*
X2246008D02*
D03*
X2500008D02*
D03*
X2754008D02*
D03*
X3008008D02*
D03*
X3262008D02*
D03*
X3516008D02*
D03*
X9016008Y845250D02*
D03*
X8889008Y1035750D02*
D03*
Y654750D02*
D03*
X8762008Y845250D02*
D03*
X8635008Y1035750D02*
D03*
Y654750D02*
D03*
X8508008Y845250D02*
D03*
X8381008Y1035750D02*
D03*
Y654750D02*
D03*
X8254008Y845250D02*
D03*
X8127008Y1035750D02*
D03*
Y654750D02*
D03*
X8000008Y845250D02*
D03*
X7873008Y1035750D02*
D03*
Y654750D02*
D03*
X7746008Y845250D02*
D03*
X7619008Y1035750D02*
D03*
Y654750D02*
D03*
X7492008Y845250D02*
D03*
X7365008Y1035750D02*
D03*
Y654750D02*
D03*
X7238008Y845250D02*
D03*
X7111008Y1035750D02*
D03*
Y654750D02*
D03*
X6984008Y845250D02*
D03*
Y464250D02*
D03*
X7238008D02*
D03*
X7492008D02*
D03*
X7746008D02*
D03*
X8000008D02*
D03*
X8254008D02*
D03*
X8508008D02*
D03*
X8762008D02*
D03*
X9016008D02*
D03*
X6516008Y5345250D02*
D03*
X6389008Y5535750D02*
D03*
Y5154750D02*
D03*
X6262008Y5345250D02*
D03*
X6135008Y5535750D02*
D03*
Y5154750D02*
D03*
X6008008Y5345250D02*
D03*
X5881008Y5535750D02*
D03*
Y5154750D02*
D03*
X5754008Y5345250D02*
D03*
X5627008Y5535750D02*
D03*
Y5154750D02*
D03*
X5500008Y5345250D02*
D03*
X5373008Y5535750D02*
D03*
Y5154750D02*
D03*
X5246008Y5345250D02*
D03*
X5119008Y5535750D02*
D03*
Y5154750D02*
D03*
X4992008Y5345250D02*
D03*
X4865008Y5535750D02*
D03*
Y5154750D02*
D03*
X4738008Y5345250D02*
D03*
X4611008Y5535750D02*
D03*
Y5154750D02*
D03*
X4484008Y5345250D02*
D03*
Y4964250D02*
D03*
X4738008D02*
D03*
X4992008D02*
D03*
X5246008D02*
D03*
X5500008D02*
D03*
X5754008D02*
D03*
X6008008D02*
D03*
X6262008D02*
D03*
X6516008D02*
D03*
D17*
X984000Y970800D02*
D03*
X4016000D02*
D03*
X6484000D02*
D03*
X9516000D02*
D03*
X3984000Y5470800D02*
D03*
X7016000D02*
D03*
D18*
X1441936Y3749193D02*
D03*
X1811936D02*
D03*
X1810000Y2400000D02*
D03*
X1440000D02*
D03*
X5310000D02*
D03*
X4940000D02*
D03*
X5640000D02*
D03*
X6365000D02*
D03*
X6735000D02*
D03*
X6010000D02*
D03*
X2510000D02*
D03*
X2140000D02*
D03*
X3210000D02*
D03*
X2840000D02*
D03*
X3540000D02*
D03*
X3910000D02*
D03*
X4240000D02*
D03*
X2141936Y3749193D02*
D03*
X2511936D02*
D03*
X2841936D02*
D03*
X3211936D02*
D03*
X3911936D02*
D03*
X3541936D02*
D03*
X4241936D02*
D03*
X4611936D02*
D03*
X4941936D02*
D03*
X5311936D02*
D03*
X5641936D02*
D03*
X6011936D02*
D03*
X6341684Y3748231D02*
D03*
X6884378Y3900956D02*
D03*
X4610000Y2400000D02*
D03*
%TF.MD5,aa5759a8fa4f80db9f26279206f225a1*%
M02*
