G04 Layer_Physical_Order=1*
G04 Layer_Color=255*
%FSLAX45Y45*%
%MOMM*%
%TF.FileFunction,Copper,L1,Top,Signal*%
%TF.Part,Single*%
G01*
G75*
%TA.AperFunction,NonConductor*%
%ADD10C,0.20320*%
%TA.AperFunction,SMDPad,CuDef*%
%ADD11R,0.62000X0.58000*%
%ADD12R,0.58000X0.62000*%
%TA.AperFunction,Conductor*%
%ADD13C,0.15200*%
%ADD14C,0.15240*%
%TA.AperFunction,NonConductor*%
%ADD15C,0.25400*%
%TA.AperFunction,ComponentPad*%
%ADD16C,1.50000*%
%ADD17C,4.00000*%
%TA.AperFunction,ViaPad*%
%ADD18C,0.80000*%
D10*
X10246260Y5500000D02*
G03*
X10246260Y5500000I-246260J0D01*
G01*
X7327760Y5470800D02*
G03*
X7327760Y5470800I-311760J0D01*
G01*
X6575768Y5535750D02*
G03*
X6262008Y5672682I-186760J0D01*
G01*
X6575287Y5522353D02*
G03*
X6575768Y5535750I-186279J13397D01*
G01*
X6702768Y5345250D02*
G03*
X6575287Y5522352I-186760J0D01*
G01*
X6008008Y5672682D02*
G03*
X5754008Y5672682I-127000J-136932D01*
G01*
X6262008D02*
G03*
X6008008Y5672682I-127000J-136932D01*
G01*
X5500008D02*
G03*
X5246008Y5672682I-127000J-136932D01*
G01*
X5754008D02*
G03*
X5500008Y5672682I-127000J-136932D01*
G01*
X5246008D02*
G03*
X4992008Y5672682I-127000J-136932D01*
G01*
X7036139Y3900956D02*
G03*
X6824765Y4040517I-151760J0D01*
G01*
X6842817Y3754998D02*
G03*
X7036139Y3900956I41561J145958D01*
G01*
X6718948Y3510471D02*
G03*
X6721044Y3532743I-117264J22272D01*
G01*
X6718948Y3510471D02*
G03*
X6721044Y3532743I-117264J22272D01*
G01*
X6686084Y3448343D02*
G03*
X6718948Y3510471I-84400J84400D01*
G01*
X6685966Y3448224D02*
G03*
X6718948Y3510471I-84282J84518D01*
G01*
X6575287Y5168147D02*
G03*
X6702768Y5345250I-59279J177103D01*
G01*
Y4964250D02*
G03*
X6575287Y5141352I-186760J0D01*
G01*
X6389008Y4827318D02*
G03*
X6702768Y4964250I127000J136932D01*
G01*
X6575287Y5141353D02*
G03*
X6575768Y5154750I-186279J13397D01*
G01*
D02*
G03*
X6575287Y5168147I-186760J0D01*
G01*
X6381368Y4820610D02*
G03*
X6389008Y4827318I-119360J143640D01*
G01*
X6886760Y2400000D02*
G03*
X6605294Y2478789I-151760J0D01*
G01*
Y2321211D02*
G03*
X6886760Y2400000I129705J78789D01*
G01*
X6570216Y2150002D02*
G03*
X6605294Y2234520I-84282J84518D01*
G01*
X6570335Y2150120D02*
G03*
X6605294Y2234520I-84400J84400D01*
G01*
X5687169Y1316394D02*
G03*
X5771687Y1351472I0J119360D01*
G01*
X5687169Y1316394D02*
G03*
X5771569Y1351354I0J119360D01*
G01*
X9075287Y1022353D02*
G03*
X9075768Y1035750I-186279J13397D01*
G01*
D02*
G03*
X8762008Y1172682I-186760J0D01*
G01*
X9202768Y845250D02*
G03*
X9075287Y1022353I-186760J0D01*
G01*
X9827760Y970800D02*
G03*
X9827760Y970800I-311760J0D01*
G01*
X10346260Y400000D02*
G03*
X10346260Y400000I-246260J0D01*
G01*
X9075287Y668148D02*
G03*
X9202768Y845250I-59279J177103D01*
G01*
X9075287Y641353D02*
G03*
X9075768Y654750I-186279J13397D01*
G01*
D02*
G03*
X9075287Y668147I-186760J0D01*
G01*
X9202768Y464250D02*
G03*
X9075287Y641353I-186760J0D01*
G01*
X8889008Y327318D02*
G03*
X9202768Y464250I127000J136932D01*
G01*
X8508008Y1172682D02*
G03*
X8254008Y1172682I-127000J-136932D01*
G01*
D02*
G03*
X8000008Y1172682I-127000J-136932D01*
G01*
X8762008D02*
G03*
X8508008Y1172682I-127000J-136932D01*
G01*
X7746008D02*
G03*
X7492008Y1172682I-127000J-136932D01*
G01*
X8000008D02*
G03*
X7746008Y1172682I-127000J-136932D01*
G01*
X7492008D02*
G03*
X7238008Y1172682I-127000J-136932D01*
G01*
D02*
G03*
X6924729Y1022353I-127000J-136932D01*
G01*
Y1022353D02*
G03*
X6924729Y668148I59279J-177103D01*
G01*
X6795760Y970800D02*
G03*
X6795760Y970800I-311760J0D01*
G01*
X8635008Y327318D02*
G03*
X8889008Y327318I127000J136932D01*
G01*
X8381008D02*
G03*
X8635008Y327318I127000J136932D01*
G01*
X8127008D02*
G03*
X8381008Y327318I127000J136932D01*
G01*
X7619008D02*
G03*
X7873008Y327318I127000J136932D01*
G01*
D02*
G03*
X8127008Y327318I127000J136932D01*
G01*
X7365008D02*
G03*
X7619008Y327318I127000J136932D01*
G01*
X6924729Y668147D02*
G03*
X6924729Y641353I186279J-13397D01*
G01*
X7111008Y327318D02*
G03*
X7365008Y327318I127000J136932D01*
G01*
X6924729Y641353D02*
G03*
X7111008Y327318I59279J-177103D01*
G01*
X4992008Y5672682D02*
G03*
X4738008Y5672682I-127000J-136932D01*
G01*
D02*
G03*
X4424729Y5522353I-127000J-136932D01*
G01*
Y5522352D02*
G03*
X4364628Y5201626I59279J-177103D01*
G01*
X4295760Y5470800D02*
G03*
X4295760Y5470800I-311760J0D01*
G01*
X2106887Y5117900D02*
G03*
X2022472Y5082934I0J-119380D01*
G01*
X2106887Y5117900D02*
G03*
X2022383Y5082844I0J-119380D01*
G01*
X746260Y5500000D02*
G03*
X746260Y5500000I-246260J0D01*
G01*
X1583341Y4643802D02*
G03*
X1548286Y4559298I84325J-84504D01*
G01*
X1583251Y4643713D02*
G03*
X1548286Y4559298I84414J-84414D01*
G01*
X1467654Y4295547D02*
G03*
X1459836Y4286953I84282J-84518D01*
G01*
X1467536Y4295429D02*
G03*
X1459836Y4286953I84400J-84400D01*
G01*
X1309048Y3822487D02*
G03*
X1409176Y3601011I132888J-73294D01*
G01*
X1548286Y2506327D02*
G03*
X1548286Y2293673I-108286J-106327D01*
G01*
X1384284Y2061900D02*
G03*
X1349318Y1977485I84414J-84414D01*
G01*
X1384373Y2061989D02*
G03*
X1349318Y1977485I84325J-84504D01*
G01*
X3636825Y987667D02*
G03*
X3638131Y1005274I-118054J17606D01*
G01*
X4327760Y970800D02*
G03*
X4327760Y970800I-311760J0D01*
G01*
X3636825Y987667D02*
G03*
X3638131Y1005274I-118054J17606D01*
G01*
X3702768Y845250D02*
G03*
X3636825Y987667I-186760J0D01*
G01*
X3575287Y668148D02*
G03*
X3702768Y845250I-59279J177103D01*
G01*
X3575768Y654750D02*
G03*
X3575287Y668147I-186760J0D01*
G01*
Y641353D02*
G03*
X3575768Y654750I-186279J13397D01*
G01*
X3702768Y464250D02*
G03*
X3575287Y641353I-186760J0D01*
G01*
X3135008Y327318D02*
G03*
X3389008Y327318I127000J136932D01*
G01*
D02*
G03*
X3702768Y464250I127000J136932D01*
G01*
X2881008Y327318D02*
G03*
X3135008Y327318I127000J136932D01*
G01*
X2627008D02*
G03*
X2881008Y327318I127000J136932D01*
G01*
X2119008D02*
G03*
X2373008Y327318I127000J136932D01*
G01*
D02*
G03*
X2627008Y327318I127000J136932D01*
G01*
X1349318Y974625D02*
G03*
X1365196Y701156I134690J-129375D01*
G01*
X1295760Y970800D02*
G03*
X1295760Y970800I-311760J0D01*
G01*
X1865008Y327318D02*
G03*
X2119008Y327318I127000J136932D01*
G01*
X1611008D02*
G03*
X1865008Y327318I127000J136932D01*
G01*
X1365196Y701156D02*
G03*
X1364648Y689734I118812J-11423D01*
G01*
X1365196Y701156D02*
G03*
X1364648Y689734I118812J-11423D01*
G01*
Y607890D02*
G03*
X1611008Y327318I119360J-143640D01*
G01*
X646260Y400000D02*
G03*
X646260Y400000I-246260J0D01*
G01*
X10431263Y5999999D02*
X10499999Y5931263D01*
X10117066Y5716655D02*
X10400410Y5999999D01*
X10159705Y5687452D02*
X10472253Y5999999D01*
X10065859Y5737290D02*
X10328568Y5999999D01*
X10072052D02*
X10499999Y5572052D01*
X10287579Y5999999D02*
X10499999Y5787579D01*
X10359421Y5999999D02*
X10499999Y5859421D01*
X10215736Y5999999D02*
X10499999Y5715737D01*
X10143894Y5999999D02*
X10499999Y5643894D01*
X10000210Y5999999D02*
X10499999Y5500210D01*
X9569157Y5999999D02*
X9863914Y5705243D01*
X9497315Y5999999D02*
X9824531Y5672784D01*
X9425473Y5999999D02*
X9792638Y5632835D01*
X9353631Y5999999D02*
X9768809Y5584821D01*
X9281789Y5999999D02*
X9755181Y5526607D01*
X10002969Y5746242D02*
X10256726Y5999999D01*
X9784684D02*
X10042038Y5742646D01*
X9916588Y5731703D02*
X10184884Y5999999D01*
X9712842D02*
X9968592Y5744249D01*
X9641000Y5999999D02*
X9911277Y5729722D01*
X8635210Y5999999D02*
X10500000Y4135209D01*
X8707052Y5999999D02*
X10500000Y4207052D01*
X8563368Y5999999D02*
X10500000Y4063367D01*
X8491526Y5999999D02*
X10500000Y3991525D01*
X8419683Y5999999D02*
X10500000Y3919683D01*
X8275999Y5999999D02*
X10500000Y3775999D01*
X8347841Y5999999D02*
X10500000Y3847841D01*
X8204157Y5999999D02*
X10500000Y3704157D01*
X8132315Y5999999D02*
X10500000Y3632315D01*
X8060473Y5999999D02*
X10500000Y3560472D01*
X9928368Y5999999D02*
X10499999Y5428368D01*
X9209947Y5999999D02*
X9758593Y5451354D01*
X9856526Y5999999D02*
X10500000Y5356526D01*
X9138105Y5999999D02*
X10500000Y4638105D01*
X9066263Y5999999D02*
X10500000Y4566262D01*
X8994420Y5999999D02*
X10500000Y4494420D01*
X8922578Y5999999D02*
X10500000Y4422578D01*
X8850736Y5999999D02*
X10500000Y4350736D01*
X8778894Y5999999D02*
X10500000Y4278894D01*
X6872103Y4052219D02*
X8819884Y5999999D01*
X6744444Y4068244D02*
X8676200Y5999999D01*
X6788560Y4040517D02*
X8748042Y5999999D01*
X6744444Y4211928D02*
X8532515Y5999999D01*
X6744444Y4140086D02*
X8604357Y5999999D01*
X7014487Y3979077D02*
X9035410Y5999999D01*
X6981302Y4017733D02*
X8963568Y5999999D01*
X7844946D02*
X10500000Y3344946D01*
X6935554Y4043827D02*
X8891726Y5999999D01*
X6605294Y3282515D02*
X9322779Y5999999D01*
X7300019Y5342240D02*
X7957778Y5999999D01*
X7326268Y5440331D02*
X7885936Y5999999D01*
X6574085Y4400779D02*
X8173305Y5999999D01*
X6502243Y4472621D02*
X8029620Y5999999D01*
X6538163Y4436700D02*
X8101463Y5999999D01*
X6681848Y4293016D02*
X8388831Y5999999D01*
X6744444Y4283770D02*
X8460673Y5999999D01*
X6610006Y4364858D02*
X8245147Y5999999D01*
X6645927Y4328937D02*
X8316989Y5999999D01*
X7557578D02*
X10500000Y3057578D01*
X7629420Y5999999D02*
X10500000Y3129420D01*
X7126525Y5999999D02*
X10500000Y2626525D01*
X7054683Y5999999D02*
X10500000Y2554682D01*
X6982841Y5999999D02*
X10500000Y2482840D01*
X7413894Y5999999D02*
X10500000Y2913893D01*
X7485736Y5999999D02*
X10500000Y2985735D01*
X7342052Y5999999D02*
X10500000Y2842051D01*
X7270209Y5999999D02*
X10500000Y2770209D01*
X7198367Y5999999D02*
X10500000Y2698367D01*
X6605294Y2779620D02*
X9825674Y5999999D01*
X6605294Y2851462D02*
X9753831Y5999999D01*
X6605294Y2707778D02*
X9897516Y5999999D01*
X6605294Y2995147D02*
X9610147Y5999999D01*
X6605294Y2923305D02*
X9681989Y5999999D01*
X7701262D02*
X10500000Y3201262D01*
X6605294Y2492252D02*
X10113042Y5999999D01*
X6605294Y2635936D02*
X9969358Y5999999D01*
X6605294Y2564094D02*
X10041200Y5999999D01*
X7988631D02*
X10500000Y3488630D01*
X10242646Y5542037D02*
X10500000Y5284684D01*
X7916789Y5999999D02*
X10500000Y3416788D01*
X7773104Y5999999D02*
X10500000Y3273104D01*
X7288191Y5622807D02*
X10500000Y2410998D01*
X10229722Y5411277D02*
X10500000Y5140999D01*
X10244249Y5468592D02*
X10500000Y5212841D01*
X10205243Y5363914D02*
X10500000Y5069157D01*
X10172784Y5324530D02*
X10500000Y4997315D01*
X10026607Y5255181D02*
X10500000Y4781789D01*
X10240542Y5552762D02*
X10499999Y5812220D01*
X10222169Y5606231D02*
X10499999Y5884062D01*
X10245876Y5486255D02*
X10499999Y5740378D01*
X10194778Y5650683D02*
X10499999Y5955904D01*
X10219164Y5387700D02*
X10499999Y5668536D01*
X10132835Y5292638D02*
X10500000Y4925473D01*
X10084822Y5268809D02*
X10500000Y4853631D01*
X9951354Y5258592D02*
X10500000Y4709947D01*
X7326331Y5440983D02*
X10500000Y2267314D01*
X7324686Y5514470D02*
X10500000Y2339156D01*
X7314530Y5380942D02*
X10500000Y2195472D01*
X7293978Y5329652D02*
X10500000Y2123630D01*
X7266534Y5285254D02*
X10500000Y2051788D01*
X9559409Y1279523D02*
X10500000Y2220114D01*
X9489473Y1281429D02*
X10500000Y2291957D01*
X9617353Y1265625D02*
X10500000Y2148272D01*
X7232994Y5246952D02*
X10500000Y1979945D01*
X9393824Y1257623D02*
X10500000Y2363799D01*
X7848398Y1220881D02*
X10500000Y3872483D01*
X8137121Y1222236D02*
X10500000Y3585114D01*
X8350396Y1219984D02*
X10500000Y3369588D01*
X7633905Y1221915D02*
X10500000Y4088009D01*
X7346181Y1221559D02*
X10500000Y4375378D01*
X9667078Y1243508D02*
X10500000Y2076430D01*
X8924295Y1219146D02*
X10500000Y2794851D01*
X8640218Y1222437D02*
X10500000Y3082220D01*
X8852142Y1218835D02*
X10500000Y2866694D01*
X6886125Y2413871D02*
X9812548Y5340295D01*
X6869911Y2469500D02*
X9783345Y5382934D01*
X6863741Y2319646D02*
X9849317Y5305222D01*
X6822670Y5226223D02*
X10500000Y1548893D01*
X6692596Y5284455D02*
X10500000Y1477050D01*
X7147930Y5188331D02*
X10500000Y1836261D01*
X7193559Y5214544D02*
X10500000Y1908103D01*
X7095162Y5169257D02*
X10500000Y1764419D01*
X7033070Y5159507D02*
X10500000Y1692577D01*
X6955835Y5164900D02*
X10500000Y1620735D01*
X7026301Y3847206D02*
X9179094Y5999999D01*
X7033941Y3926688D02*
X9107252Y5999999D01*
X6605294Y3210673D02*
X9394621Y5999999D01*
X6605294Y3138831D02*
X9466463Y5999999D01*
X6605294Y3066989D02*
X9538305Y5999999D01*
X6795783Y2539056D02*
X9753758Y5497031D01*
X6839047Y2510478D02*
X9762710Y5434141D01*
X6605294Y3354357D02*
X9250937Y5999999D01*
X6736636Y2551751D02*
X9768297Y5583412D01*
X6633383Y5199983D02*
X10500000Y1333366D01*
X6668202Y5237007D02*
X10500000Y1405208D01*
X6540005Y1277488D02*
X10500000Y5237483D01*
X6473042Y1282368D02*
X10500000Y5309325D01*
X6385384Y1266552D02*
X10500000Y5381167D01*
X6644358Y1238157D02*
X10500000Y5093799D01*
X7032315Y3867104D02*
X9644633Y1254786D01*
X7130578Y1221482D02*
X10500000Y4590904D01*
X6596076Y1261718D02*
X10500000Y5165641D01*
X6588424Y5173101D02*
X10500000Y1261524D01*
X7010711Y3816866D02*
X9546514Y1281063D01*
X6975864Y3779871D02*
X9475780Y1279955D01*
X6928225Y3755668D02*
X9417351Y1266541D01*
X6861051Y3750999D02*
X9367260Y1244790D01*
X6673454Y3435712D02*
X8886671Y1222495D01*
X6825327Y2278049D02*
X7881039Y1222337D01*
X6882273Y2436630D02*
X8098571Y1220332D01*
X6605294Y3000977D02*
X8383782Y1222490D01*
X6605294Y3216503D02*
X8602193Y1219605D01*
X6940893Y5773378D02*
X7167515Y5999999D01*
X6839157D02*
X7059670Y5779486D01*
X6910999Y5999999D02*
X7168007Y5742991D01*
X6767315Y5999999D02*
X6986183Y5781131D01*
X6695473Y5999999D02*
X6926142Y5769330D01*
X7186615Y5731731D02*
X7454883Y5999999D01*
X7139917Y5756875D02*
X7383041Y5999999D01*
X7227017Y5700291D02*
X7526726Y5999999D01*
X7021863Y5782505D02*
X7239357Y5999999D01*
X7085837Y5774637D02*
X7311199Y5999999D01*
X6221966Y5701030D02*
X6520936Y5999999D01*
X6168565Y5719471D02*
X6449094Y5999999D01*
X6280615Y5687836D02*
X6592778Y5999999D01*
X6120736D02*
X6398464Y5722270D01*
X6095545Y5718293D02*
X6377252Y5999999D01*
X6623630D02*
X6874852Y5748778D01*
X6551788Y5999999D02*
X6830454Y5721333D01*
X6496664Y5688359D02*
X6808304Y5999999D01*
X6387121Y5722500D02*
X6664620Y5999999D01*
X6449056Y5712593D02*
X6736462Y5999999D01*
X7311731Y5569479D02*
X7742252Y5999999D01*
X7289976Y5619566D02*
X7670410Y5999999D01*
X7325150Y5511056D02*
X7814094Y5999999D01*
X7261511Y5662942D02*
X7598568Y5999999D01*
X6605076Y5509403D02*
X7095673Y5999999D01*
X6575120Y5551289D02*
X7023831Y5999999D01*
X6560859Y5608870D02*
X6951989Y5999999D01*
X6479946D02*
X6792152Y5687794D01*
X6533826Y5653679D02*
X6880147Y5999999D01*
X6408104D02*
X6759744Y5648359D01*
X6336262Y5999999D02*
X6733531Y5602730D01*
X6264420Y5999999D02*
X6714457Y5549962D01*
X6192578Y5999999D02*
X6704707Y5487870D01*
X6575529Y5545206D02*
X6621097Y5499638D01*
X6646436Y5478920D02*
X6713422Y5545907D01*
X5617841Y5999999D02*
X5895927Y5721913D01*
X5593911Y5719554D02*
X5874357Y5999999D01*
X5664838Y5718639D02*
X5946199Y5999999D01*
X5545999D02*
X5830459Y5715539D01*
X5440544Y5709871D02*
X5730673Y5999999D01*
X6048893D02*
X6334511Y5714382D01*
X5905209Y5999999D02*
X6191423Y5713786D01*
X5944833Y5711265D02*
X6233567Y5999999D01*
X5884208Y5722483D02*
X6161725Y5999999D01*
X5833367D02*
X6112248Y5721118D01*
X5114946Y5999999D02*
X5393571Y5721375D01*
X5092011Y5720548D02*
X5371462Y5999999D01*
X5161027Y5717722D02*
X5443304Y5999999D01*
X5043104D02*
X5326481Y5716622D01*
X4936191Y5708413D02*
X5227778Y5999999D01*
X5381163Y5722332D02*
X5658830Y5999999D01*
X5402314D02*
X5691172Y5711142D01*
X5330472Y5999999D02*
X5608847Y5721625D01*
X5258630Y5999999D02*
X5551892Y5706738D01*
X5977051Y5999999D02*
X6285709Y5691341D01*
X5787020Y5697136D02*
X6089883Y5999999D01*
X5991632Y5686222D02*
X6305410Y5999999D01*
X5761525D02*
X6056375Y5705149D01*
X5717284Y5699242D02*
X6018041Y5999999D01*
X5717284Y5699242D02*
X6018041Y5999999D01*
X5486548Y5684033D02*
X5802515Y5999999D01*
X5689683D02*
X6012750Y5676932D01*
X5290075Y5703086D02*
X5586988Y5999999D01*
X5212545Y5697398D02*
X5515146Y5999999D01*
X5474156D02*
X5780804Y5693352D01*
X4971262Y5999999D02*
X5275951Y5695310D01*
X5186788Y5999999D02*
X5507511Y5679276D01*
X4981414Y5681794D02*
X5299620Y5999999D01*
X6693318Y5022907D02*
X6867234Y5196823D01*
X6669382Y5070814D02*
X6823857Y5225289D01*
X6702730Y4960478D02*
X6917321Y5175069D01*
X6634957Y5108231D02*
X6786509Y5259783D01*
X6662491Y4848397D02*
X6975744Y5161650D01*
X6744444Y4226817D02*
X6923738Y4047523D01*
X6750517Y4040517D02*
X6824765D01*
X6744444Y4154975D02*
X6850527Y4048892D01*
X6744444Y4083133D02*
X6787059Y4040517D01*
X6700722Y5317680D02*
X6729925Y5346883D01*
X6698071Y5386871D02*
X6712163Y5400963D01*
X6702766Y5346127D02*
X6771423Y5277470D01*
X6677835Y5438477D02*
X6704295Y5464937D01*
X6670396Y5450339D02*
X6710100Y5410635D01*
X6744444Y4040517D02*
Y4191991D01*
Y4040517D02*
Y4191991D01*
X6688784Y4285991D02*
X6744444D01*
Y4191991D02*
Y4285991D01*
X6750517Y3754998D02*
X6842817D01*
X6744444Y3565349D02*
X6938128Y3759033D01*
X6744444Y3709033D02*
X6790408Y3754998D01*
X6744444Y3604471D02*
Y3754998D01*
Y3637191D02*
X6858646Y3751393D01*
X6744444Y3604471D02*
Y3754998D01*
Y3510471D02*
Y3604471D01*
X6718948Y3510471D02*
X6744444D01*
X6605294Y2713608D02*
X6771630Y2547273D01*
X6721041Y3531810D02*
X6742379Y3510471D01*
X6605294Y2498082D02*
X6613049Y2490328D01*
X6605294Y2234520D02*
Y2321211D01*
Y2641766D02*
X6699509Y2547552D01*
X6605294Y2478789D02*
Y3367553D01*
X6590427Y5135543D02*
X6755069Y5300185D01*
X6430400Y4544464D02*
X7046469Y5160532D01*
X6466321Y4508542D02*
X7144560Y5186781D01*
X6605294Y3367553D02*
X6685966Y3448224D01*
X6381368Y4593496D02*
X6685966Y4288898D01*
X6381368Y4593496D02*
Y4820610D01*
Y4782800D02*
X6409444Y4810876D01*
X6394479Y4580385D02*
X6631861Y4817767D01*
X6381368Y4710958D02*
X6457351Y4786940D01*
X6381368Y4639115D02*
X6519780Y4777528D01*
X6605294Y2569924D02*
X6649700Y2525519D01*
X6605294Y2276725D02*
X6624522Y2295953D01*
X6600099Y2199688D02*
X6665500Y2265089D01*
X6510348Y2090133D02*
X7378456Y1222025D01*
X6603287Y2212721D02*
X7595042Y1220966D01*
X6151138Y1730923D02*
X6643231Y1238830D01*
X6366664Y1946449D02*
X7091613Y1221500D01*
X6079296Y1659081D02*
X6456989Y1281388D01*
X6115217Y1695002D02*
X6531262Y1278957D01*
X5771687Y1351472D02*
X6570216Y2150002D01*
X6043375Y1623160D02*
X6396504Y1270030D01*
X6007454Y1587239D02*
X6344889Y1249803D01*
X5971532Y1551317D02*
X6300219Y1222631D01*
X9018836Y1170004D02*
X10500000Y2651167D01*
X9710144Y1214732D02*
X10500000Y2004588D01*
X9050402Y1129726D02*
X10500000Y2579325D01*
X8977308Y1200317D02*
X10500000Y2723009D01*
X8746812Y1185347D02*
X10500000Y2938536D01*
X9820494Y1037714D02*
X10500000Y1717220D01*
X9803148Y1092210D02*
X10500000Y1789062D01*
X9827751Y973129D02*
X10500000Y1645378D01*
X9747199Y1179945D02*
X10500000Y1932746D01*
X9778339Y1139242D02*
X10500000Y1860904D01*
X9070849Y1078332D02*
X10500000Y2507483D01*
X8700335Y1210712D02*
X10500000Y3010378D01*
X9083679Y1019319D02*
X10500000Y2435641D01*
X8545723Y1199785D02*
X10500000Y3154062D01*
X8472603Y1198507D02*
X10500000Y3225904D01*
X9075754Y1033413D02*
X9094409Y1014757D01*
X9129654Y993452D02*
X9229177Y1092975D01*
X9049127Y1131881D02*
X9204296Y976712D01*
X10499999Y5999999D02*
X10500001Y0D01*
X9817341Y890877D02*
X10500000Y1573536D01*
X9141991Y0D02*
X10500000Y1358009D01*
X8998307Y0D02*
X10500000Y1501693D01*
X9070149Y0D02*
X10500000Y1429851D01*
X10143576Y642374D02*
X10500000Y998799D01*
X10074272Y644912D02*
X10500000Y1070641D01*
X10198672Y625628D02*
X10500000Y926956D01*
X9960357Y602839D02*
X10500000Y1142483D01*
X9799986Y1099433D02*
X10500001Y399418D01*
X9285675Y0D02*
X10500000Y1214325D01*
X9826263Y1001313D02*
X10204667Y622910D01*
X9213833Y0D02*
X10500000Y1286167D01*
X9190832Y910946D02*
X9207277Y927391D01*
X9825155Y930580D02*
X10109664Y646070D01*
X9165388Y957344D02*
X9205370Y997327D01*
X9185515Y923651D02*
X9213405Y895761D01*
X7691640Y1207808D02*
X10500000Y4016167D01*
X7916689Y1217330D02*
X10500000Y3800641D01*
X7736554Y1180879D02*
X10500000Y3944325D01*
X7549068Y1208920D02*
X10500000Y4159851D01*
X6701188Y4988494D02*
X10500000Y1189682D01*
X8196019Y1209292D02*
X10500000Y3513272D01*
X8420534Y1218280D02*
X10500000Y3297746D01*
X8241708Y1183138D02*
X10500000Y3441430D01*
X8048034Y1204991D02*
X10500000Y3656957D01*
X7967842Y1196641D02*
X10500000Y3728799D01*
X7187199Y1206262D02*
X10500000Y4519062D01*
X7049261Y1212007D02*
X10500000Y4662746D01*
X7231349Y1178569D02*
X10500000Y4447220D01*
X6686167Y1208124D02*
X10500000Y5021957D01*
X6722026Y1172141D02*
X10500000Y4950115D01*
X7412765Y1216301D02*
X10500000Y4303535D01*
X7463027Y1194721D02*
X10500000Y4231693D01*
X6785211Y3754998D02*
X9323880Y1216328D01*
X6744444Y3723933D02*
X9286533Y1181843D01*
X6676781Y4869217D02*
X10500000Y1045998D01*
X6697526Y4920314D02*
X10500000Y1117840D01*
X6644981Y4829175D02*
X10500000Y974156D01*
X6603214Y4799100D02*
X10500000Y902313D01*
X6381368Y4805419D02*
X10500000Y686787D01*
X6477026Y4781603D02*
X10500000Y758629D01*
X6549884Y4780588D02*
X10500000Y830471D01*
X7030946Y3940315D02*
X10500001Y471260D01*
X6381368Y4733577D02*
X10500000Y614945D01*
X6381368Y4661735D02*
X10500001Y543103D01*
X6775341Y1081772D02*
X10500000Y4806430D01*
X6751928Y1130201D02*
X10500000Y4878272D01*
X5046990Y0D02*
X10499999Y5453009D01*
X4903306Y0D02*
X10499999Y5596693D01*
X4975148Y0D02*
X10499999Y5524851D01*
X6744444Y3652090D02*
X9255089Y1141446D01*
X6790922Y1025511D02*
X10500000Y4734588D01*
X6744444Y3580248D02*
X9229940Y1094752D01*
X6742379Y3510471D02*
X9212172Y1040678D01*
X10334767Y474355D02*
X10500000Y639588D01*
X10312692Y524122D02*
X10500000Y711430D01*
X10345883Y413628D02*
X10500001Y567746D01*
X10244381Y599495D02*
X10500000Y855114D01*
X10282295Y565567D02*
X10500000Y783272D01*
X10346070Y409664D02*
X10500001Y255734D01*
X10336921Y332824D02*
X10500001Y495904D01*
X10339824Y344068D02*
X10500001Y183892D01*
X10322910Y504667D02*
X10500001Y327576D01*
X10320899Y291152D02*
X10500001Y112050D01*
X9811741Y872151D02*
X10044068Y639824D01*
X9789991Y822060D02*
X9991152Y620898D01*
X9761528Y778680D02*
X9947137Y593072D01*
X9727044Y741333D02*
X9910776Y557601D01*
X9686646Y709889D02*
X9881997Y514537D01*
X9639952Y684740D02*
X9861884Y462808D01*
X9585878Y666972D02*
X9853742Y399109D01*
X9521912Y659096D02*
X9870625Y310383D01*
X10293072Y247136D02*
X10500001Y40208D01*
X10257601Y210776D02*
X10468377Y0D01*
X10219623D02*
X10500001Y280378D01*
X10075939Y0D02*
X10500001Y424062D01*
X10147781Y0D02*
X10500001Y352220D01*
X10363307Y0D02*
X10500001Y136693D01*
X10291465Y0D02*
X10500001Y208536D01*
X10435149Y0D02*
X10500001Y64851D01*
X10162808Y161884D02*
X10324693Y0D01*
X10214538Y181997D02*
X10396535Y0D01*
X9788570D02*
X9975878Y187308D01*
X9716728Y0D02*
X9934433Y217705D01*
X10010383Y170625D02*
X10181008Y0D01*
X9573044D02*
X9874372Y301328D01*
X9644886Y0D02*
X9900505Y255619D01*
X10004097Y0D02*
X10167176Y163079D01*
X10099109Y153741D02*
X10252850Y0D01*
X9860412D02*
X10025645Y165233D01*
X9932254Y0D02*
X10086372Y154117D01*
X9180640Y757070D02*
X9243292Y819722D01*
X9202681Y850953D02*
X9221175Y869447D01*
X9189463Y776019D02*
X9965482Y0D01*
X9116854Y621442D02*
X9272068Y776656D01*
X9155588Y588334D02*
X9306855Y739601D01*
X9195526Y412745D02*
X9449086Y666305D01*
X9200979Y490040D02*
X9394590Y683652D01*
X9202417Y475696D02*
X9678113Y0D01*
X9184307Y545211D02*
X9347558Y708461D01*
X9195074Y411197D02*
X9606271Y0D01*
X9075750Y652181D02*
X9104188Y680618D01*
X9163262Y730378D02*
X9893640Y0D01*
X9126855Y694943D02*
X9821798Y0D01*
X9202478Y834846D02*
X10037324Y0D01*
X8926465D02*
X9595923Y669459D01*
X9080117Y669838D02*
X9749956Y0D01*
X9440961Y668205D02*
X10109166Y0D01*
X9429360D02*
X9855088Y425728D01*
X9501202Y0D02*
X9857626Y356424D01*
X9172346Y362084D02*
X9534429Y0D01*
X9357517D02*
X9897161Y539643D01*
X9095495Y295250D02*
X9390745Y0D01*
X8866058Y309160D02*
X9175219Y0D01*
X9138936Y323651D02*
X9462587Y0D01*
X8817463Y285913D02*
X9103377Y0D01*
X8854623D02*
X9513671Y659048D01*
X8961413Y285648D02*
X9247061Y0D01*
X9039881Y279022D02*
X9318903Y0D01*
X8753867Y277667D02*
X9031534Y0D01*
X8782781D02*
X9067513Y284732D01*
X6706098Y3474911D02*
X8985139Y1195869D01*
X6637533Y3399791D02*
X8825826Y1211498D01*
X6605294Y3360188D02*
X8778890Y1186592D01*
X6605294Y3288345D02*
X8675593Y1218047D01*
X6605294Y3144661D02*
X8548624Y1201331D01*
X6605294Y2785451D02*
X8174329Y1216416D01*
X6882552Y2364509D02*
X8044008Y1203053D01*
X6605294Y2857293D02*
X8273867Y1188721D01*
X6605294Y2929135D02*
X8321615Y1212814D01*
X6605294Y3072819D02*
X8492633Y1185481D01*
X6777285Y2254250D02*
X7817473Y1214062D01*
X6709252Y2250440D02*
X7768895Y1190797D01*
X6860519Y2314700D02*
X8001326Y1173892D01*
X6605294Y2282556D02*
X7673452Y1214398D01*
X6581354Y2162812D02*
X7539449Y1204717D01*
X6474427Y2054212D02*
X7313401Y1215238D01*
X6546269Y2126054D02*
X7496024Y1176300D01*
X6402585Y1982370D02*
X7173052Y1211903D01*
X6438506Y2018291D02*
X7263975Y1192822D01*
X6795508Y958254D02*
X6934751Y1097497D01*
X6735831Y787019D02*
X6894620Y628229D01*
X6792157Y1018061D02*
X6842772Y967446D01*
X6794588Y943789D02*
X6814572Y923804D01*
X6783230Y883304D02*
X6798627Y867907D01*
X6752030Y1130031D02*
X6881016Y1001044D01*
X6778973Y869877D02*
X6803958Y894863D01*
X6763003Y831689D02*
X6806026Y788666D01*
X6702543Y748464D02*
X6853331Y597677D01*
X6663363Y715803D02*
X6822001Y557164D01*
X6618011Y689312D02*
X6801854Y505470D01*
X6330743Y1910528D02*
X7034950Y1206321D01*
X6294822Y1874607D02*
X6990772Y1178657D01*
X6258901Y1838686D02*
X6956672Y1140915D01*
X6222980Y1802765D02*
X6933119Y1092626D01*
X6187059Y1766844D02*
X6924351Y1029552D01*
X6196464Y0D02*
X6883992Y687528D01*
X6124622Y0D02*
X6845070Y720448D01*
X6302973Y716982D02*
X7019955Y0D01*
X5980938D02*
X6799207Y818269D01*
X6052780Y0D02*
X6816153Y763373D01*
X5935611Y1515397D02*
X6261664Y1189343D01*
X5899690Y1479475D02*
X6229003Y1150163D01*
X5863769Y1443554D02*
X6202512Y1104811D01*
X5827848Y1407633D02*
X6183102Y1052379D01*
X5791927Y1371712D02*
X6172879Y990760D01*
X5754559Y1337238D02*
X6177381Y914416D01*
X5702564Y1317391D02*
X6230182Y789773D01*
X5693569Y0D02*
X6373028Y679459D01*
X5559877Y1316394D02*
X6876271Y0D01*
X5488034Y1316394D02*
X6804429Y0D01*
X5631719Y1316394D02*
X6948113Y0D01*
X5344350Y1316394D02*
X6660744Y0D01*
X5416192Y1316394D02*
X6732586Y0D01*
X5272508Y1316394D02*
X6588902Y0D01*
X5200666Y1316394D02*
X6517060Y0D01*
X5621727D02*
X6324599Y702872D01*
X5056982Y1316394D02*
X6373376Y0D01*
X5128824Y1316394D02*
X6445218Y0D01*
X5118832D02*
X6188248Y1069416D01*
X5190674Y0D02*
X6172432Y981758D01*
X5262517Y0D02*
X6177311Y914795D01*
X4913298Y1316394D02*
X6229692Y0D01*
X4985140Y1316394D02*
X6301534Y0D01*
X5478043D02*
X6246676Y768633D01*
X5549885Y0D02*
X6282659Y732774D01*
X5334359Y0D02*
X6193082Y858723D01*
X5406201Y0D02*
X6216643Y810442D01*
X8633635Y326057D02*
X8959692Y0D01*
X8590938Y296912D02*
X8887850Y0D01*
X8361088Y311236D02*
X8672324Y0D01*
X8567254D02*
X8891924Y324670D01*
X8639096Y0D02*
X8935047Y295951D01*
X8536354Y279654D02*
X8816008Y0D01*
X8710938D02*
X8990218Y279279D01*
X8423570Y0D02*
X8708800Y285230D01*
X8460544Y283622D02*
X8744166Y0D01*
X8351728D02*
X8659720Y307992D01*
X8279886Y0D02*
X8566906Y287020D01*
X8313322Y287159D02*
X8600482Y0D01*
X8208044D02*
X8486748Y278704D01*
X8251128Y277512D02*
X8528640Y0D01*
X8136201D02*
X8430524Y294322D01*
X8086323Y298633D02*
X8384955Y0D01*
X8141966Y314832D02*
X8456797Y0D01*
X7856065Y313364D02*
X8169429Y0D01*
X8064359D02*
X8386652Y322292D01*
X8032734Y280379D02*
X8313113Y0D01*
X7992517D02*
X8270760Y278243D01*
X8495412Y0D02*
X8773240Y277828D01*
X7920675Y0D02*
X8204772Y284097D01*
X7959288Y281983D02*
X8241271Y0D01*
X7649613Y304290D02*
X7953903Y0D01*
X7633307D02*
X7926060Y292754D01*
X7848833Y0D02*
X8154832Y305999D01*
X7561464Y0D02*
X7881429Y319965D01*
X7581651Y300410D02*
X7882060Y0D01*
X7776991D02*
X8066853Y289862D01*
X7809113Y288474D02*
X8097587Y0D01*
X7705149D02*
X7983380Y278232D01*
X7748241Y277503D02*
X8025745Y0D01*
X7350992Y315542D02*
X7666534Y0D01*
X7345938D02*
X7649997Y304059D01*
X7153101Y297907D02*
X7451008Y0D01*
X7304836Y289856D02*
X7594692Y0D01*
X7489622D02*
X7768468Y278845D01*
X7457710Y280666D02*
X7738376Y0D01*
X7529024Y281195D02*
X7810218Y0D01*
X7202254D02*
X7480122Y277869D01*
X7417780Y0D02*
X7700819Y283039D01*
X6898688Y630382D02*
X6924252Y655946D01*
X6565579Y669902D02*
X6799382Y436099D01*
X7076923Y302243D02*
X7379166Y0D01*
X7130412D02*
X7421658Y291247D01*
X7025228Y282095D02*
X7307323Y0D01*
X7058570D02*
X7376256Y317687D01*
X6843043Y0D02*
X7145216Y302173D01*
X6771201Y0D02*
X7069310Y298109D01*
X7274096Y0D02*
X7567542Y293446D01*
X6427616Y664181D02*
X7091797Y0D01*
X6503960Y659679D02*
X7163639Y0D01*
X6986727D02*
X7266386Y279659D01*
X6955858Y279624D02*
X7235481Y0D01*
X7245220Y277629D02*
X7522850Y0D01*
X6699359D02*
X6976981Y277622D01*
X6914885Y0D02*
X7196945Y282060D01*
X6268306Y0D02*
X6817876Y549570D01*
X5909096Y0D02*
X6584923Y675827D01*
X6340148Y0D02*
X6797380Y457231D01*
X5765411Y0D02*
X6429289Y663878D01*
X5837254Y0D02*
X6496546Y659292D01*
X6555675Y0D02*
X6871134Y315459D01*
X6627517Y0D02*
X6917319Y289803D01*
X6411990Y0D02*
X6809558Y397568D01*
X6483833Y0D02*
X6835213Y351381D01*
X4540209Y5999999D02*
X4822581Y5717627D01*
X4324693Y5999999D02*
X4602382Y5722311D01*
X4252851Y5999999D02*
X4543117Y5709733D01*
X4117977Y5752304D02*
X4365672Y5999999D01*
X4163333Y5725818D02*
X4437514Y5999999D01*
X4877994Y5722058D02*
X5155936Y5999999D01*
X4827577D02*
X5105552Y5722025D01*
X4657134Y5716724D02*
X4940409Y5999999D01*
X4589879Y5721311D02*
X4868567Y5999999D01*
X4612051D02*
X4891417Y5720633D01*
X3821798Y5999999D02*
X4045330Y5776468D01*
X3749956Y5999999D02*
X3967816Y5782140D01*
X3678114Y5999999D02*
X3905578Y5772535D01*
X3606272Y5999999D02*
X3852706Y5753565D01*
X3534430Y5999999D02*
X3806992Y5727437D01*
X4003912Y5781923D02*
X4221988Y5999999D01*
X3927554Y5777407D02*
X4150146Y5999999D01*
X4065539Y5771708D02*
X4293830Y5999999D01*
X3802796Y5724491D02*
X4078304Y5999999D01*
X3893640D02*
X4182159Y5711481D01*
X4468377Y5999999D02*
X4771159Y5697217D01*
X4396535Y5999999D02*
X4692971Y5703563D01*
X4294583Y5497858D02*
X4796725Y5999999D01*
X4262986Y5609945D02*
X4653041Y5999999D01*
X4283219Y5558335D02*
X4724883Y5999999D01*
X4899419D02*
X5191590Y5707829D01*
X4755735Y5999999D02*
X5047469Y5708265D01*
X4791552Y5707457D02*
X5084093Y5999999D01*
X4707752Y5695500D02*
X5012251Y5999999D01*
X4683893D02*
X5002322Y5681571D01*
X4037325Y5999999D02*
X4436101Y5601223D01*
X3462588Y5999999D02*
X3767480Y5695107D01*
X3965483Y5999999D02*
X4424326Y5541156D01*
X3390746Y5999999D02*
X3733864Y5656881D01*
X3318903Y5999999D02*
X3706337Y5612566D01*
X4202518Y5693161D02*
X4509356Y5999999D01*
X4235809Y5654610D02*
X4581199Y5999999D01*
X4181009D02*
X4497189Y5683819D01*
X4109167Y5999999D02*
X4461497Y5647669D01*
X2908836Y5117900D02*
X3790935Y5999999D01*
X3031535D02*
X3710652Y5320883D01*
X2887851Y5999999D02*
X3769950Y5117900D01*
X2816009Y5999999D02*
X3698108Y5117900D01*
X2836994D02*
X3719093Y5999999D01*
X3052520Y5117900D02*
X3934620Y5999999D01*
X2980678Y5117900D02*
X3862777Y5999999D01*
X3124362Y5117900D02*
X4006462Y5999999D01*
X-0D02*
X10499999D01*
X2959693D02*
X3841792Y5117900D01*
X2693309D02*
X3575409Y5999999D01*
X2672324D02*
X3554424Y5117900D01*
X2744166Y5999999D02*
X3626266Y5117900D01*
X2600482Y5999999D02*
X3482582Y5117900D01*
X2621467D02*
X3503567Y5999999D01*
X3247061D02*
X3685687Y5561374D01*
X3175219Y5999999D02*
X3673752Y5501467D01*
X3103377Y5999999D02*
X3675162Y5428214D01*
X2765151Y5117900D02*
X3647251Y5999999D01*
X1666535D02*
X2548634Y5117900D01*
X1594693Y5999999D02*
X2476792Y5117900D01*
X1451008Y5999999D02*
X2333108Y5117900D01*
X-0Y3717748D02*
X2282251Y5999999D01*
X-0Y3502222D02*
X2497777Y5999999D01*
X1810219D02*
X2692318Y5117900D01*
X1738377Y5999999D02*
X2620476Y5117900D01*
X-0Y3430380D02*
X2569619Y5999999D01*
X-0Y3358538D02*
X2641461Y5999999D01*
X-0Y3286696D02*
X2713303Y5999999D01*
X876271D02*
X1907905Y4968366D01*
X804429Y5999999D02*
X1871984Y4932445D01*
X732587Y5999999D02*
X1836063Y4896524D01*
X660745Y5999999D02*
X1800141Y4860603D01*
X-0Y4148801D02*
X1851198Y5999999D01*
X1379166D02*
X2261266Y5117900D01*
X948113Y5999999D02*
X1943826Y5004287D01*
X-0Y4076959D02*
X1923040Y5999999D01*
X-0Y3789591D02*
X2210409Y5999999D01*
X4292166Y5423598D02*
X4425447Y5556879D01*
X4224681Y5668959D02*
X4388123Y5505517D01*
X4289668Y5532130D02*
X4348271Y5473527D01*
X4364628Y5167686D02*
Y5201626D01*
X4314842Y5117900D02*
X4364628Y5167686D01*
X4240637Y5293792D02*
X4364628Y5169801D01*
X4273836Y5117900D02*
X4360817Y5204881D01*
X4295340Y5454616D02*
X4318391Y5431565D01*
X4285735Y5392378D02*
X4300138Y5377976D01*
X4266765Y5339506D02*
X4301741Y5304530D01*
X4252104Y5311694D02*
X4297632Y5357222D01*
X4208307Y5254280D02*
X4329765Y5132822D01*
X4201994Y5117900D02*
X4327476Y5243382D01*
X4130152Y5117900D02*
X4304830Y5292578D01*
X4170081Y5220664D02*
X4272845Y5117900D01*
X4058310D02*
X4143106Y5202696D01*
X4074574Y5172487D02*
X4129161Y5117900D01*
X4125766Y5193137D02*
X4201003Y5117900D01*
X3770941D02*
X3844855Y5191814D01*
X3834083Y5197452D02*
X3913635Y5117900D01*
X3986468D02*
X4031201Y5162634D01*
X3941415Y5161962D02*
X3985477Y5117900D01*
X4014667Y5160552D02*
X4057319Y5117900D01*
X3842783D02*
X3896464Y5171581D01*
X3914625Y5117900D02*
X3956942Y5160216D01*
X3268046Y5117900D02*
X3677392Y5527246D01*
X3339888Y5117900D02*
X3672876Y5450888D01*
X3411731Y5117900D02*
X3683092Y5389261D01*
X2549625Y5117900D02*
X3431725Y5999999D01*
X3196204Y5117900D02*
X3730308Y5652004D01*
X3627257Y5117900D02*
X3761639Y5252282D01*
X3699099Y5117900D02*
X3800190Y5218990D01*
X3483573Y5117900D02*
X3702496Y5336823D01*
X3555415Y5117900D02*
X3728982Y5291467D01*
X2384956Y5999999D02*
X3267055Y5117900D01*
X2313114Y5999999D02*
X3195213Y5117900D01*
X2262256Y5117900D02*
X3144356Y5999999D01*
X2241272D02*
X3123371Y5117900D01*
X2190414Y5117900D02*
X3072514Y5999999D01*
X2477783Y5117900D02*
X3359883Y5999999D01*
X2456798D02*
X3338898Y5117900D01*
X2528640Y5999999D02*
X3410740Y5117900D01*
X2339427D02*
X4314842D01*
X2405941D02*
X3288040Y5999999D01*
X2169429D02*
X3051529Y5117900D01*
X2097587Y5999999D02*
X2979687Y5117900D01*
X2118572Y5117900D02*
X3000672Y5999999D01*
X1953903D02*
X2836003Y5117900D01*
X2025745Y5999999D02*
X2907845Y5117900D01*
X1882061Y5999999D02*
X2764161Y5117900D01*
X2106887Y5117900D02*
X2339180D01*
X1522850Y5999999D02*
X2404950Y5117900D01*
X1307324Y5999999D02*
X2189424Y5117900D01*
X2334098D02*
X3216198Y5999999D01*
X-0Y3574064D02*
X2425935Y5999999D01*
X-0Y3214854D02*
X2785146Y5999999D01*
X-0Y3143011D02*
X2856988Y5999999D01*
X-0Y3071169D02*
X2928830Y5999999D01*
X1235482D02*
X2117582Y5117900D01*
X-0Y3861433D02*
X2138566Y5999999D01*
X-0Y3645906D02*
X2354093Y5999999D01*
X1163640D02*
X2056769Y5106870D01*
X1091798Y5999999D02*
X2015668Y5076129D01*
X517061Y5999999D02*
X1728299Y4788761D01*
X-0Y4005117D02*
X1994882Y5999999D01*
X-0Y3933275D02*
X2066724Y5999999D01*
X1019956D02*
X1979747Y5040208D01*
X1583341Y4643802D02*
X2022383Y5082844D01*
X588903Y5999999D02*
X1764221Y4824682D01*
X-0Y4220643D02*
X1779356Y5999999D01*
X744128Y5467667D02*
X1276461Y5999999D01*
X743217Y5538597D02*
X1204619Y5999999D01*
X445219D02*
X1692378Y4752840D01*
X373376Y5999999D02*
X1656457Y4716919D01*
X-0Y4651696D02*
X1348303Y5999999D01*
X727369Y5594591D02*
X1132777Y5999999D01*
X701914Y5640978D02*
X1060935Y5999999D01*
X737895Y5563638D02*
X1620536Y4680998D01*
X627771Y5710520D02*
X917250Y5999999D01*
X668593Y5679500D02*
X989093Y5999999D01*
X519086Y5745519D02*
X773566Y5999999D01*
X440751Y5739026D02*
X701724Y5999999D01*
X578741Y5733332D02*
X845408Y5999999D01*
X229692D02*
X483955Y5745737D01*
X301534Y5999999D02*
X563638Y5737895D01*
X157850Y5999999D02*
X423706Y5734143D01*
X86008Y5999999D02*
X374265Y5711742D01*
X-0Y5801170D02*
X198829Y5999999D01*
X14166D02*
X333095Y5681071D01*
X745737Y5483955D02*
X1584615Y4645077D01*
X734144Y5423706D02*
X1556092Y4601758D01*
X711742Y5374265D02*
X1548286Y4537722D01*
X-0Y4364328D02*
X1635672Y5999999D01*
X-0Y4292485D02*
X1707514Y5999999D01*
X1548286Y4376179D02*
Y4559298D01*
X681071Y5333094D02*
X1548286Y4465880D01*
X642889Y5299434D02*
X1548286Y4394037D01*
X596883Y5273598D02*
X1521294Y4349187D01*
X541395Y5257244D02*
X1485373Y4313266D01*
X351099Y5303856D02*
X1409176Y4245779D01*
X-0Y4579854D02*
X1420145Y5999999D01*
X-0Y4508012D02*
X1491987Y5999999D01*
X471389Y5255408D02*
X1439844Y4286953D01*
X0Y2999328D02*
X1548286Y4547613D01*
X-0Y5152060D02*
X1309048Y3843012D01*
X0Y2927485D02*
X1548286Y4475771D01*
X-0Y5513802D02*
X486198Y5999999D01*
X-0Y5657486D02*
X342513Y5999999D01*
X-0Y5441959D02*
X558040Y5999999D01*
X-0Y5585644D02*
X414356Y5999999D01*
X-0Y5370117D02*
X629882Y5999999D01*
X-0Y5010907D02*
X320500Y5331407D01*
X-0Y5082749D02*
X289480Y5372229D01*
X-0Y4939065D02*
X359022Y5298086D01*
X-0Y5942323D02*
X299434Y5642889D01*
X-0Y5654955D02*
X303856Y5351099D01*
X-0Y5870481D02*
X273598Y5596883D01*
X-0Y5944854D02*
X55145Y5999999D01*
X-0Y5798639D02*
X257244Y5541395D01*
X-0Y5873012D02*
X126987Y5999999D01*
X-0Y5729328D02*
X270671Y5999999D01*
X-0Y5226433D02*
X254481Y5480914D01*
X-0Y5154591D02*
X266668Y5421259D01*
X-0Y5726797D02*
X255408Y5471389D01*
X-0Y5298275D02*
X260974Y5559249D01*
X-0Y4936534D02*
X1409176Y3527358D01*
X-0Y5511271D02*
X1409176Y4102095D01*
X-0Y4864692D02*
X1548286Y3316406D01*
X-0Y4436170D02*
X1563829Y5999999D01*
X-0Y5583113D02*
X1409176Y4173937D01*
X-0Y4577323D02*
X1548286Y3029037D01*
X-0Y4649165D02*
X1548286Y3100879D01*
X-0Y4505481D02*
X1548286Y2957195D01*
X-0Y4792849D02*
X1548286Y3244563D01*
X-0Y4721007D02*
X1548286Y3172721D01*
X-0Y4795380D02*
X461403Y5256783D01*
X-0Y4867222D02*
X405409Y5272631D01*
X-0Y5295744D02*
X1309048Y3986696D01*
X-0Y5439429D02*
X1396557Y4042871D01*
X-0Y5367586D02*
X1324715Y4042871D01*
X-0Y5080218D02*
X1294609Y3785608D01*
X-0Y5008376D02*
X1294293Y3714083D01*
X-0Y4723538D02*
X532333Y5255872D01*
X-0Y5223902D02*
X1309048Y3914854D01*
X1467654Y4295547D02*
X1548286Y4376179D01*
X1431310Y4286953D02*
X1548286Y4403929D01*
X1409176Y4264819D02*
X1431310Y4286953D01*
X1409176Y3511433D02*
X1484096D01*
X1409176Y3527358D02*
X1425100Y3511433D01*
X1484096D02*
X1548286Y3447243D01*
X1409176Y4286953D02*
X1459836D01*
X1409176Y4042871D02*
Y4192953D01*
Y4042871D02*
Y4192953D01*
Y4286953D01*
X1402754Y4042871D02*
X1409176Y4049293D01*
X1330912Y4042871D02*
X1409176Y4121135D01*
X1309048Y3822487D02*
Y4042871D01*
X1403048D01*
X1409176Y3511433D02*
Y3601011D01*
X1309048Y4021007D02*
X1330912Y4042871D01*
X1485263Y2544853D02*
X1548286Y2607876D01*
X1425100Y3511433D02*
X1548286Y3388248D01*
Y2506327D02*
Y3447243D01*
X1418846Y2550279D02*
X1548286Y2679718D01*
X1517525Y2269535D02*
X1548286Y2238774D01*
X1532536Y2520284D02*
X1548286Y2536034D01*
Y2225902D02*
Y2293673D01*
X1464918Y2250300D02*
X1518801Y2196417D01*
X1384373Y2061989D02*
X1548286Y2225902D01*
X0Y2496433D02*
X1296665Y3793098D01*
X0Y2424591D02*
X1293415Y3718005D01*
X0Y2924954D02*
X1349318Y1575636D01*
X0Y2855643D02*
X1409176Y4264819D01*
X0Y2711959D02*
X1309048Y4021007D01*
X1384702Y2258673D02*
X1482880Y2160496D01*
X0Y2853112D02*
X1349318Y1503794D01*
X-0Y4289955D02*
X1548286Y2741669D01*
X0Y2783801D02*
X1409176Y4192977D01*
X-0Y4218112D02*
X1548286Y2669827D01*
X-0Y4433639D02*
X1548286Y2885353D01*
X-0Y4361797D02*
X1548286Y2813511D01*
X-0Y4002586D02*
X1451243Y2551343D01*
X0Y2209064D02*
X1395612Y3604676D01*
X0Y2137222D02*
X1409176Y3546398D01*
X-0Y4146270D02*
X1548286Y2597984D01*
X-0Y4074428D02*
X1548286Y2526142D01*
X0Y2568275D02*
X1309048Y3877323D01*
X0Y2640117D02*
X1309048Y3949165D01*
X-0Y3787060D02*
X1309535Y2477525D01*
X-0Y3930744D02*
X1388125Y2542619D01*
X-0Y3858902D02*
X1342557Y2516344D01*
X0Y2352748D02*
X1314318Y3667066D01*
X0Y2280906D02*
X1348612Y3629519D01*
X-0Y3715218D02*
X1290299Y2424918D01*
X-0Y3643375D02*
X1298673Y2344702D01*
X0Y1921696D02*
X1536916Y3458612D01*
X0Y1993538D02*
X1500995Y3494533D01*
X0Y1849854D02*
X1548286Y3398139D01*
X-0Y3571533D02*
X1446959Y2124575D01*
X0Y2065380D02*
X1446053Y3511433D01*
X0Y1562485D02*
X1548286Y3110771D01*
X0Y1634327D02*
X1548286Y3182613D01*
X0Y1490643D02*
X1548286Y3038929D01*
X0Y1778011D02*
X1548286Y3326297D01*
X0Y1706169D02*
X1548286Y3254455D01*
X-0Y3356007D02*
X1352246Y2003761D01*
X-0Y3284165D02*
X1349318Y1934847D01*
X-0Y3212323D02*
X1349318Y1863004D01*
X-0Y3499691D02*
X1411038Y2088653D01*
X-0Y3427849D02*
X1375616Y2052233D01*
X0Y2996796D02*
X1349318Y1647478D01*
X0Y2781270D02*
X1349318Y1431952D01*
X-0Y3140481D02*
X1349318Y1791162D01*
X-0Y3068639D02*
X1349318Y1719320D01*
X4759622Y0D02*
X10013745Y5254124D01*
X4544095Y0D02*
X6815354Y2271259D01*
X4841455Y1316394D02*
X6157850Y0D01*
X4400411D02*
X5722000Y1321589D01*
X4472253Y0D02*
X6721128Y2248875D01*
X4554087Y1316394D02*
X5870481Y0D01*
X4482245Y1316394D02*
X5798639Y0D01*
X4769613Y1316394D02*
X6086007Y0D01*
X4291682Y825218D02*
X4782858Y1316394D01*
X4410403D02*
X5726797Y0D01*
X4191821Y1228252D02*
X4279963Y1316394D01*
X4145924Y1254197D02*
X4208121Y1316394D01*
X4231499Y1196088D02*
X4351805Y1316394D01*
X4092829Y1272945D02*
X4136278Y1316394D01*
X4051192D02*
X4095273Y1272313D01*
X4326063Y1003284D02*
X4639173Y1316394D01*
X4313844Y1062906D02*
X4567331Y1316394D01*
X4325148Y930527D02*
X4711015Y1316394D01*
X4265280Y1158027D02*
X4423647Y1316394D01*
X4292984Y1113889D02*
X4495489Y1316394D01*
X4687780Y0D02*
X9947238Y5259458D01*
X4697771Y1316394D02*
X6014165Y0D01*
X4831464D02*
X10112300Y5280836D01*
X4615937Y0D02*
X9893769Y5277831D01*
X4625929Y1316394D02*
X5942323Y0D01*
X4328569D02*
X5644963Y1316394D01*
X4266718D02*
X5583113Y0D01*
X4338561Y1316394D02*
X5654955Y0D01*
X4194876Y1316394D02*
X5511270Y0D01*
X4256727D02*
X5573121Y1316394D01*
X4184885Y0D02*
X5501279Y1316394D01*
X4123034D02*
X5439428Y0D01*
X4317513Y1050073D02*
X5367586Y0D01*
X4041200D02*
X5357595Y1316394D01*
X4113043Y0D02*
X5429437Y1316394D01*
X4320408Y903494D02*
X5223902Y0D01*
X4327748Y967997D02*
X5295744Y0D01*
X4278151Y802066D02*
X5080218Y0D01*
X4303006Y849054D02*
X5152060Y0D01*
X4030275Y1282233D02*
X4064436Y1316394D01*
X3979350D02*
X4013197Y1282547D01*
X3952152Y1275952D02*
X3992594Y1316394D01*
X3729629D02*
X5687169D01*
X3907508D02*
X3948694Y1275208D01*
X3835666Y1316394D02*
X3894254Y1257806D01*
X3763824Y1316394D02*
X3847266Y1232951D01*
X3799004Y1194646D02*
X3920752Y1316394D01*
X3710805Y1297571D02*
X3806604Y1201771D01*
X3638131Y1105615D02*
X3848910Y1316394D01*
X3674884Y1261649D02*
X3771857Y1164677D01*
X3638131Y1224896D02*
X3729629Y1316394D01*
X3638963Y1225729D02*
X3743121Y1121570D01*
X3638131Y1177457D02*
X3777068Y1316394D01*
X3638131Y1005274D02*
Y1224896D01*
Y1154718D02*
X3721053Y1071797D01*
X3638131Y1033773D02*
X3792154Y1187796D01*
X3638131Y1082876D02*
X3707218Y1013789D01*
X3897516Y0D02*
X5213910Y1316394D01*
X3825674Y0D02*
X5142068Y1316394D01*
X3969358Y0D02*
X5285752Y1316394D01*
X3681990Y0D02*
X4998384Y1316394D01*
X3753832Y0D02*
X5070226Y1316394D01*
X3698752Y806728D02*
X4505481Y0D01*
X3610148D02*
X4926542Y1316394D01*
X3596394Y632825D02*
X3758548Y794979D01*
X3538306Y0D02*
X4854700Y1316394D01*
X3650761Y974560D02*
X3710848Y1034648D01*
X3638131Y1011034D02*
X3705416Y943749D01*
X3680930Y932887D02*
X3704567Y956525D01*
X3699567Y879683D02*
X3713855Y893971D01*
X3699992Y877330D02*
X3729535Y847788D01*
X3698831Y807105D02*
X3732603Y840876D01*
X4209877Y726656D02*
X4936533Y0D01*
X4166770Y697921D02*
X4864691Y0D01*
X4246971Y761404D02*
X5008376Y0D01*
X3695375Y516280D02*
X3872911Y693816D01*
X3679202Y754436D02*
X4433639Y0D01*
X4058989Y662018D02*
X4721007Y0D01*
X3702325Y451388D02*
X3923894Y672956D01*
X4116997Y675852D02*
X4792849Y0D01*
X3658759Y343827D02*
X4002586Y0D01*
X3692346Y525766D02*
X4218112Y0D01*
X3639641Y604230D02*
X3790712Y755301D01*
X3672867Y565614D02*
X3828773Y721520D01*
X3648336Y713460D02*
X4361796Y0D01*
X3607512Y682442D02*
X4289954Y0D01*
X3892988Y684334D02*
X4577323Y0D01*
X3394621D02*
X4056273Y661652D01*
X3466463Y0D02*
X4161582Y695118D01*
X3701726Y444544D02*
X4146270Y0D01*
X3686473Y387955D02*
X4074428Y0D01*
X3988949Y660216D02*
X4649165Y0D01*
X3322779D02*
X3983516Y660737D01*
X3620969Y309775D02*
X3930744Y0D01*
X3388432Y326786D02*
X3715217Y0D01*
X3345955Y297420D02*
X3643375Y0D01*
X3572624Y286278D02*
X3858902Y0D01*
X3115983Y311866D02*
X3427849Y0D01*
X3179095D02*
X3463979Y284884D01*
X3291672Y279861D02*
X3571533Y0D01*
X3509454Y277605D02*
X3787059Y0D01*
X3216596Y283095D02*
X3499691Y0D01*
X3250937D02*
X3528871Y277933D01*
X2901450Y310872D02*
X3212323Y0D01*
X3107253D02*
X3414644Y307391D01*
X2819884Y0D02*
X3141476Y321592D01*
X2841323Y299158D02*
X3140480Y0D01*
X3035411D02*
X3323215Y287804D01*
X3006670Y277495D02*
X3284165Y0D01*
X3068462Y287545D02*
X3356007Y0D01*
X2788024Y280614D02*
X3068638Y0D01*
X2963569D02*
X3242121Y278552D01*
X2610945Y314009D02*
X2924954Y0D01*
X2604358D02*
X2909772Y305414D01*
X2715238Y281558D02*
X2996796Y0D01*
X2748042D02*
X3026444Y278402D01*
X2564232Y288880D02*
X2853112Y0D01*
X2676200D02*
X2959973Y283773D01*
X2407306Y302122D02*
X2709428Y0D01*
X2388832D02*
X2681128Y292297D01*
X2891727Y0D02*
X3185574Y293847D01*
X2316990Y0D02*
X2636268Y319279D01*
X2336634Y300952D02*
X2637586Y0D01*
X2503743Y277527D02*
X2781270Y0D01*
X2460674D02*
X2738785Y278111D01*
X2532516Y0D02*
X2823360Y290844D01*
X0Y0D02*
X10500001D01*
X2284288Y281455D02*
X2565743Y0D01*
X2105856Y316203D02*
X2422059Y0D01*
X2101463D02*
X2404953Y303490D01*
X2173305Y0D02*
X2456044Y282738D01*
X2029621Y0D02*
X2324325Y294704D01*
X2059936Y290281D02*
X2350217Y0D01*
X2213573Y280328D02*
X2493901Y0D01*
X2245147D02*
X2524212Y279065D01*
X1957779Y0D02*
X2235561Y277782D01*
X2000683Y277692D02*
X2278375Y0D01*
X1072307Y1269792D02*
X1349318Y1546803D01*
X1011975Y1281302D02*
X1349318Y1618645D01*
X1123810Y1249453D02*
X1349318Y1474961D01*
X937975Y1279144D02*
X1349318Y1690487D01*
X827314Y1240325D02*
X1349318Y1762329D01*
X1279220Y1070997D02*
X1349318Y1000899D01*
X1206855Y1188813D02*
X1349318Y1331276D01*
X1295182Y989772D02*
X1349318Y1043908D01*
X1168387Y1222188D02*
X1349318Y1403119D01*
X1206855Y1188813D02*
X1349318Y1331276D01*
X0Y2134691D02*
X872682Y1262009D01*
X0Y2062849D02*
X824299Y1238550D01*
X1349318Y974625D02*
Y1977485D01*
X0Y2278375D02*
X996048Y1282327D01*
X0Y2206533D02*
X928884Y1277649D01*
X1285120Y1051552D02*
X1349318Y1115750D01*
X1295527Y982848D02*
X1328981Y949394D01*
X1239430Y1149546D02*
X1349318Y1259434D01*
X1265826Y1104100D02*
X1349318Y1187592D01*
X1290379Y913127D02*
X1334726Y957474D01*
X1290849Y915683D02*
X1305708Y900824D01*
X0Y844064D02*
X1407661Y2251725D01*
X0Y772222D02*
X1481924Y2254146D01*
X1251750Y811099D02*
X1364929Y697919D01*
X1275209Y859482D02*
X1297419Y837272D01*
X1221806Y769200D02*
X1364648Y626358D01*
X520936Y0D02*
X1306906Y785969D01*
X592779Y0D02*
X1330975Y738197D01*
X1235057Y785962D02*
X1297271Y848177D01*
X444687Y642172D02*
X685008Y882493D01*
X375735Y645062D02*
X673498Y942825D01*
X264386Y605555D02*
X675656Y1016825D01*
X582919Y564877D02*
X765987Y747945D01*
X582919Y564877D02*
X765987Y747945D01*
X499584Y625227D02*
X705347Y830990D01*
X545142Y598942D02*
X732612Y786413D01*
X0Y1275117D02*
X1548286Y2823402D01*
X0Y2709428D02*
X1349318Y1360110D01*
X0Y1203274D02*
X1548286Y2751560D01*
X0Y1418801D02*
X1548286Y2967087D01*
X0Y1346959D02*
X1548286Y2895244D01*
X0Y2422059D02*
X1349318Y1072741D01*
X0Y2493901D02*
X1349318Y1144583D01*
X0Y987748D02*
X1319716Y2307464D01*
X0Y2637586D02*
X1349318Y1288267D01*
X0Y2565743D02*
X1349318Y1216425D01*
X0Y2350217D02*
X1084197Y1266020D01*
X0Y1991006D02*
X782400Y1208606D01*
X0Y1919164D02*
X746456Y1172709D01*
X0Y1131432D02*
X1289721Y2421154D01*
X0Y1059590D02*
X1295147Y2354737D01*
X0Y1703638D02*
X677238Y1026400D01*
X0Y1631796D02*
X672451Y959345D01*
X0Y1847322D02*
X716464Y1130858D01*
X0Y1775480D02*
X692949Y1082531D01*
X0Y628537D02*
X1349319Y1977856D01*
X0Y556695D02*
X1349318Y1906013D01*
X0Y484853D02*
X1349318Y1834171D01*
X0Y915906D02*
X1357025Y2272931D01*
X0Y700380D02*
X1548286Y2248665D01*
X0Y1344427D02*
X1344427Y0D01*
X0Y1272585D02*
X1272585Y0D01*
X0Y1200743D02*
X1200743Y0D01*
X0Y1488112D02*
X1488112Y0D01*
X0Y1416269D02*
X1416269Y0D01*
X0Y1128901D02*
X507196Y621705D01*
X0Y1057059D02*
X411047Y646012D01*
X0Y413011D02*
X714475Y1127486D01*
X0Y1559954D02*
X688489Y871465D01*
X-0Y5999999D02*
X0Y0D01*
Y841532D02*
X247877Y593656D01*
X0Y769690D02*
X211374Y558317D01*
X0Y985217D02*
X345144Y640073D01*
X0Y913375D02*
X292041Y621334D01*
X1831889Y302801D02*
X2134691Y0D01*
X1814095D02*
X2131111Y317016D01*
X1600717Y318447D02*
X1919164Y0D01*
X1885937D02*
X2176745Y290808D01*
X1598568Y0D02*
X1900188Y301620D01*
X1910145Y296388D02*
X2206533Y0D01*
X1526726D02*
X1826526Y299800D01*
X1555576Y291747D02*
X1847322Y0D01*
X1364648Y607890D02*
Y689734D01*
X1185909Y733256D02*
X1338206Y580959D01*
X1144058Y703264D02*
X1311505Y535817D01*
X1497502Y277978D02*
X1775480Y0D01*
X1095731Y679749D02*
X1297736Y477744D01*
X1039600Y664038D02*
X1311900Y391738D01*
X1383042Y0D02*
X1672426Y289384D01*
X1311200Y0D02*
X1626003Y314804D01*
X1411497Y292141D02*
X1703638Y0D01*
X884665Y675289D02*
X1559954Y0D01*
X972545Y659250D02*
X1631796Y0D01*
X1742253D02*
X2022199Y279946D01*
X1711647Y279360D02*
X1991006Y0D01*
X1780468Y282380D02*
X2062849Y0D01*
X1454884D02*
X1732457Y277572D01*
X1670410Y0D02*
X1952194Y281783D01*
X880147Y0D02*
X1302101Y421954D01*
X808305Y0D02*
X1299152Y490847D01*
X951989Y0D02*
X1322486Y370496D01*
X664621Y0D02*
X1365136Y700515D01*
X736463Y0D02*
X1364648Y628185D01*
X1167516Y0D02*
X1448426Y280911D01*
X1239358Y0D02*
X1520434Y281077D01*
X1023831Y0D02*
X1354001Y330170D01*
X1095673Y0D02*
X1395479Y299806D01*
X645949Y412381D02*
X903248Y669680D01*
X635081Y473355D02*
X850700Y688974D01*
X636390Y330980D02*
X965028Y659618D01*
X613175Y523291D02*
X805254Y715370D01*
X449094Y0D02*
X1168838Y719743D01*
X515397Y182451D02*
X697848Y0D01*
X463846Y162160D02*
X626006Y0D01*
X558317Y211374D02*
X769690Y0D01*
X400424Y153740D02*
X554164Y0D01*
X0Y341169D02*
X194445Y535614D01*
X0Y554164D02*
X153740Y400424D01*
X0Y482322D02*
X169801Y312521D01*
X0Y697848D02*
X182451Y515397D01*
X0Y626006D02*
X162160Y463846D01*
X0Y125643D02*
X174773Y300416D01*
X0Y53801D02*
X201058Y254858D01*
X0Y269327D02*
X154938Y424265D01*
X0Y197485D02*
X157828Y355313D01*
X621705Y507196D02*
X1128901Y0D01*
X640073Y345144D02*
X985217Y0D01*
X646012Y411047D02*
X1057059Y0D01*
X0Y410480D02*
X410480Y0D01*
X377252D02*
X1041673Y664421D01*
X593656Y247877D02*
X841532Y0D01*
X312521Y169801D02*
X482322Y0D01*
X621334Y292041D02*
X913375Y0D01*
X233568D02*
X387619Y154051D01*
X305410Y0D02*
X469020Y163610D01*
X0Y338638D02*
X338638Y0D01*
X18042D02*
X235122Y217081D01*
X18042Y0D02*
X235122Y217081D01*
X0Y194953D02*
X194953Y0D01*
X0Y266796D02*
X266796Y0D01*
X89884D02*
X276709Y186825D01*
X161726Y0D02*
X326645Y164919D01*
X0Y123111D02*
X123111Y0D01*
X0Y51269D02*
X51269Y0D01*
D11*
X1551936Y4146193D02*
D03*
Y4052193D02*
D03*
X2250000Y4147000D02*
D03*
Y4053000D02*
D03*
X2950000Y4147000D02*
D03*
Y4053000D02*
D03*
X3650000Y4147000D02*
D03*
Y4053000D02*
D03*
X4350000Y4147000D02*
D03*
Y4053000D02*
D03*
X5050000Y4147000D02*
D03*
Y4053000D02*
D03*
X5750000Y4147000D02*
D03*
Y4053000D02*
D03*
X6451684Y4145231D02*
D03*
Y4051231D02*
D03*
X1701936Y4146193D02*
D03*
Y4052193D02*
D03*
X2400000Y4147000D02*
D03*
Y4053000D02*
D03*
X3100000Y4147000D02*
D03*
Y4053000D02*
D03*
X3800000Y4147000D02*
D03*
Y4053000D02*
D03*
X4500000Y4147000D02*
D03*
Y4053000D02*
D03*
X5200000Y4147000D02*
D03*
Y4053000D02*
D03*
X5900000Y4147000D02*
D03*
Y4053000D02*
D03*
X6601684Y4145231D02*
D03*
Y4051231D02*
D03*
X1701936Y3746193D02*
D03*
Y3652193D02*
D03*
X1551936Y3746193D02*
D03*
Y3652193D02*
D03*
X2400000Y3653000D02*
D03*
Y3747000D02*
D03*
X2250000Y3653000D02*
D03*
Y3747000D02*
D03*
X3100000Y3653000D02*
D03*
Y3747000D02*
D03*
X2950000Y3653000D02*
D03*
Y3747000D02*
D03*
X3800000Y3653000D02*
D03*
Y3747000D02*
D03*
X3650000Y3653000D02*
D03*
Y3747000D02*
D03*
X4500000Y3653000D02*
D03*
Y3747000D02*
D03*
X4350000Y3653000D02*
D03*
Y3747000D02*
D03*
X5200000Y3653000D02*
D03*
Y3747000D02*
D03*
X5050000Y3653000D02*
D03*
Y3747000D02*
D03*
X5900000Y3653000D02*
D03*
Y3747000D02*
D03*
X5750000Y3653000D02*
D03*
Y3747000D02*
D03*
X6601684Y3651231D02*
D03*
Y3745231D02*
D03*
X6451684Y3651231D02*
D03*
Y3745231D02*
D03*
D12*
X1708313Y3900111D02*
D03*
X1802313D02*
D03*
X1543808D02*
D03*
X1449808D02*
D03*
X2497000Y3900000D02*
D03*
X2403000D02*
D03*
X2153000D02*
D03*
X2247000D02*
D03*
X3197000D02*
D03*
X3103000D02*
D03*
X2853000D02*
D03*
X2947000D02*
D03*
X3897000D02*
D03*
X3803000D02*
D03*
X3553000D02*
D03*
X3647000D02*
D03*
X4597000D02*
D03*
X4503000D02*
D03*
X4253000D02*
D03*
X4347000D02*
D03*
X5297000D02*
D03*
X5203000D02*
D03*
X4953000D02*
D03*
X5047000D02*
D03*
X5997000D02*
D03*
X5903000D02*
D03*
X5653000D02*
D03*
X5747000D02*
D03*
X6703757Y3897758D02*
D03*
X6609757D02*
D03*
X6350254Y3896850D02*
D03*
X6444254D02*
D03*
D13*
X1551936Y4146193D02*
Y4211029D01*
Y3612393D02*
Y3652193D01*
X1484008Y464250D02*
Y689734D01*
X1528324Y734050D01*
X6262008Y5345250D02*
X6277808Y5329450D01*
X1551936Y4211029D02*
X1639696Y4298789D01*
X6262008Y5121511D02*
Y5345250D01*
X6150808Y5010311D02*
X6262008Y5121511D01*
X6150808Y4907497D02*
Y5010311D01*
X6262008Y4544056D02*
X6601684Y4204379D01*
Y4145231D02*
Y4204379D01*
Y3532743D02*
Y3651231D01*
X3262008Y845250D02*
X3277808Y861050D01*
X3404808Y827811D02*
Y891311D01*
X1551936Y3612393D02*
X1653065Y3511264D01*
X1811936Y3749193D02*
Y3896193D01*
X1441936Y3749193D02*
Y3896193D01*
X6485934Y3416993D02*
X6601684Y3532743D01*
X3518771Y1274337D02*
X3680188Y1435754D01*
X6262008Y4544056D02*
Y4964250D01*
X6150808Y4907497D02*
X6227758Y4830547D01*
Y4529869D02*
Y4830547D01*
Y4529869D02*
X6451684Y4305943D01*
Y4145231D02*
Y4305943D01*
X4378486Y4964250D02*
X4378486Y4964250D01*
X4484008D01*
X1701936Y4146193D02*
Y4545103D01*
X2121082Y4964250D01*
X4378486D01*
X3680188Y1435754D02*
X5687169D01*
X6485934Y2234520D01*
Y3416993D01*
X3666002Y1470004D02*
X5672982D01*
X6451684Y2248706D01*
Y3651231D01*
X5642808Y4907497D02*
Y5010311D01*
X5754008Y5121511D01*
Y5345250D01*
X5896808Y5010311D02*
X6008008Y5121511D01*
Y5345250D01*
X5931058Y4887300D02*
X6008008Y4964250D01*
X5931058Y4380039D02*
Y4887300D01*
Y4380039D02*
X5931078Y4380019D01*
Y4351629D02*
Y4380019D01*
X5931058Y4331574D02*
Y4351609D01*
X5931078Y4351629D01*
X5896808Y4365823D02*
Y5010311D01*
X1701936Y2162230D02*
Y3652193D01*
X4484008Y5218860D02*
Y5345250D01*
X4626808Y5010311D02*
X4738008Y5121511D01*
Y5345250D01*
X2992698Y860560D02*
Y1125946D01*
X3404808Y891311D02*
X3518771Y1005274D01*
Y1274337D01*
X3277808Y861050D02*
Y1081811D01*
X3666002Y1470004D01*
X3262008Y464250D02*
Y685011D01*
X3404808Y827811D01*
X3008008Y464250D02*
Y680513D01*
X3116028Y788534D01*
Y901966D01*
X3026988Y991007D02*
X3116028Y901966D01*
X3026988Y991007D02*
Y1215573D01*
X2754008Y464250D02*
Y680513D01*
X2862028Y788534D01*
Y901966D01*
X2772988Y991007D02*
X2862028Y901966D01*
X2500008Y464250D02*
Y680513D01*
X2608028Y788534D01*
Y901966D01*
X2518988Y991007D02*
X2608028Y901966D01*
X2518988Y991007D02*
Y1111743D01*
X5134808Y4907497D02*
Y5010311D01*
X5246008Y5121511D01*
Y5345250D01*
X5388808Y4907497D02*
Y5010311D01*
X5500008Y5121511D01*
Y5345250D01*
X2484698Y860560D02*
Y1125946D01*
X2230698Y860560D02*
Y1125946D01*
X2246008Y464250D02*
Y680513D01*
X2354028Y788534D01*
Y901966D01*
X2264988Y991007D02*
X2354028Y901966D01*
X2264988Y991007D02*
Y1111743D01*
X1976698Y860560D02*
Y1125946D01*
X1992008Y464250D02*
Y680513D01*
X2100028Y788534D01*
Y901966D01*
X2010988Y991007D02*
X2100028Y901966D01*
X2010988Y991007D02*
Y1051375D01*
X1722698Y860560D02*
Y1125946D01*
Y860560D02*
X1738008Y845250D01*
X2250000Y3590760D02*
Y3653000D01*
X1738008Y464250D02*
Y680513D01*
X1846028Y788534D01*
X1756988Y991007D02*
Y1051375D01*
Y991007D02*
X1846028Y901966D01*
Y788534D02*
Y901966D01*
X2400000Y3376779D02*
Y3653000D01*
X2141936Y3749193D02*
Y3896193D01*
X2511936Y3749193D02*
Y3896193D01*
X2841936Y3749193D02*
Y3896193D01*
X3211936Y3749193D02*
Y3896193D01*
X3911936Y3749193D02*
Y3896193D01*
X3541936Y3749193D02*
Y3896193D01*
X4241936Y3749193D02*
Y3896193D01*
X4611936Y3749193D02*
Y3896193D01*
X4941936Y3749193D02*
Y3896193D01*
X5311936Y3749193D02*
Y3896193D01*
X5641936Y3749193D02*
Y3896193D01*
X6011936Y3749193D02*
Y3896193D01*
X6341685Y3748231D02*
Y3895231D01*
X2772988Y991007D02*
Y1111743D01*
X2738698Y860560D02*
Y1125946D01*
D14*
X1701936Y3746193D02*
Y4052193D01*
X1551936Y3746193D02*
Y4052193D01*
X2250000Y3747000D02*
Y4053000D01*
X2400000Y3747000D02*
Y4053000D01*
X1528324Y734050D02*
Y734420D01*
X1596590Y802686D01*
X1468698Y860560D02*
X1484008Y845250D01*
X2339427Y4998520D02*
X4364291D01*
X1639696Y4298789D02*
X1667666Y4326759D01*
X2339426Y4998520D02*
X2339427Y4998520D01*
X1667666Y4326759D02*
Y4559298D01*
X2106887Y4998520D01*
X2339426D01*
X5750000Y3747000D02*
Y4053000D01*
X5900000Y3747000D02*
Y4053000D01*
X5750000Y4147000D02*
X5757620Y4154620D01*
X5900000Y4147000D02*
Y4300515D01*
X5931058Y4331574D01*
X5757620Y4154620D02*
Y4207745D01*
X5896788Y4346914D01*
Y4365804D01*
X5896808Y4365823D01*
X2992698Y1125946D02*
X2992718Y1125926D01*
X1468698Y1977485D02*
X1667666Y2176453D01*
Y3496663D01*
X1653065Y3511264D02*
X1667666Y3496663D01*
X1502988Y1963282D02*
X1701936Y2162230D01*
X3331448Y1695351D02*
X3332034Y1695937D01*
X5557307D01*
X5483222Y1661061D02*
X5483808Y1661647D01*
X5571511D01*
X3225146Y1695351D02*
X3331448D01*
X3239349Y1661061D02*
X5483222D01*
X5900000Y1990137D02*
Y3653000D01*
X5750000D02*
X5865710Y3537290D01*
X5571511Y1661647D02*
X5900000Y1990137D01*
X5865710Y2004340D02*
Y3537290D01*
X5557307Y1695937D02*
X5865710Y2004340D01*
X4567575Y4816041D02*
X4585805Y4834270D01*
X4585805D01*
X4581778Y4781751D02*
X4661098Y4861070D01*
X4661098D01*
X4585805Y4834270D02*
X4626808Y4875273D01*
Y5010311D01*
X4364291Y4998520D02*
X4484008Y5118237D01*
Y5218860D01*
X4992008Y5117013D02*
Y5345250D01*
X4661098Y4861070D02*
X4738008Y4937980D01*
Y4964250D01*
X3100000Y3747000D02*
Y4053000D01*
X2950000Y3747000D02*
Y4053000D01*
X3026988Y1215573D02*
Y1448700D01*
X3239349Y1661061D01*
X2992698Y1125946D02*
Y1462904D01*
X3225146Y1695351D01*
X4839695Y4653640D02*
X4883988Y4697933D01*
X4853898Y4619350D02*
X4918278Y4683730D01*
X6451684Y3745231D02*
Y4051231D01*
X6601684Y3745231D02*
Y4051231D01*
X3650000Y3747000D02*
Y4053000D01*
X3800000Y3747000D02*
Y4053000D01*
Y4147000D02*
Y4183620D01*
X5035814Y4524245D02*
X5134808Y4623239D01*
Y4907497D01*
X5169098Y4609036D02*
Y4887340D01*
X5050017Y4489955D02*
X5169098Y4609036D01*
Y4887340D02*
X5246008Y4964250D01*
X3742794Y4240826D02*
X3800000Y4183620D01*
X3805349Y4489955D02*
X5050017D01*
X3742794Y4427400D02*
X3805349Y4489955D01*
X3742794Y4240826D02*
Y4427400D01*
X3650000Y4147000D02*
Y4383099D01*
X3791146Y4524245D01*
X5035814D01*
X3100000Y4147000D02*
Y4208143D01*
X3031875Y4276268D02*
X3100000Y4208143D01*
X2950000Y4147000D02*
Y4226075D01*
X2997585Y4273660D01*
X3031875Y4276268D02*
Y4567519D01*
X3083706Y4619350D01*
X4853898D01*
X2997585Y4273660D02*
Y4581723D01*
X3069503Y4653640D01*
X4839695D01*
X2400000Y4147000D02*
Y4210741D01*
X2544517Y4816041D02*
X4567575D01*
X2558721Y4781751D02*
X4581778D01*
X2250000Y4147000D02*
X2309251Y4206251D01*
Y4580774D01*
X2544517Y4816041D01*
X2343541Y4566571D02*
X2558721Y4781751D01*
X2343541Y4267201D02*
Y4566571D01*
Y4267201D02*
X2400000Y4210741D01*
X4350000Y3747000D02*
Y4053000D01*
X4500000Y3747000D02*
Y4053000D01*
X5050000Y3747000D02*
Y4053000D01*
X5200000Y3747000D02*
Y4053000D01*
X4442145Y4307713D02*
X4489753Y4355321D01*
X5155073D01*
X4475550Y4389611D02*
X5140870D01*
X5388808Y4637549D01*
Y4907497D01*
X5155073Y4355321D02*
X5423098Y4623346D01*
Y4887340D01*
X5500008Y4964250D01*
X5200000Y4147000D02*
X5266037D01*
X5677098Y4887340D02*
X5754008Y4964250D01*
X1468698Y860560D02*
Y1977485D01*
X1502988Y982042D02*
Y1963282D01*
Y982042D02*
X1596590Y888441D01*
Y802686D02*
Y888441D01*
X5266037Y4147000D02*
X5330025Y4210987D01*
X5050000Y4147000D02*
Y4174217D01*
X5121060Y4245277D01*
X4500000Y2106768D02*
Y3653000D01*
X4402877Y2009645D02*
X4500000Y2106768D01*
X2815925Y2009645D02*
X4402877D01*
X2518988Y1712708D02*
X2815925Y2009645D01*
X2518988Y1111743D02*
Y1712708D01*
X2484698Y1125946D02*
Y1726911D01*
X2801722Y2043935D01*
X4388674D01*
X4465710Y2120971D01*
X4442145Y4204855D02*
Y4307713D01*
Y4204855D02*
X4500000Y4147000D01*
X4350000D02*
X4407855Y4204855D01*
Y4321916D01*
X4475550Y4389611D01*
X4465710Y2120971D02*
Y3499012D01*
X4350000Y3614722D02*
X4465710Y3499012D01*
X4350000Y3614722D02*
Y3653000D01*
X2901327Y1875973D02*
X4951304D01*
X5050000Y1974669D01*
Y3653000D01*
X4965507Y1841683D02*
X5086527Y1962703D01*
Y3539527D01*
X5200000Y3653000D01*
X5330025Y4210987D02*
X5542954D01*
X5677098Y4345131D02*
Y4887340D01*
X5121060Y4245277D02*
X5528751D01*
X5642808Y4359334D01*
Y4907497D01*
X5542954Y4210987D02*
X5677098Y4345131D01*
X2915530Y1841683D02*
X4965507D01*
X2644099Y2190828D02*
Y2552596D01*
X2712389Y2620886D01*
X2609809Y2205031D02*
Y2566799D01*
X2712389Y2620886D02*
X3701392D01*
X2609809Y2566799D02*
X2698186Y2655176D01*
X3687189D01*
X3701392Y2620886D02*
X3800000Y2719493D01*
X2230698Y1825920D02*
X2609809Y2205031D01*
X3765710Y2733697D02*
Y3464818D01*
X3650000Y3580528D02*
Y3653000D01*
Y3580528D02*
X3765710Y3464818D01*
X2230698Y1125946D02*
Y1825920D01*
X2264988Y1811717D02*
X2644099Y2190828D01*
X2264988Y1111743D02*
Y1811717D01*
X2353378Y2182553D02*
Y2763407D01*
X2538962Y2948991D01*
X2319088Y2196756D02*
Y2777610D01*
X2524758Y2983281D01*
X2974873D01*
X2538962Y2948991D02*
X2989076D01*
X1976698Y1854366D02*
X2319088Y2196756D01*
X3064859Y3073267D02*
Y3501521D01*
X2950000Y3616380D02*
Y3653000D01*
Y3616380D02*
X3064859Y3501521D01*
X1976698Y1125946D02*
Y1854366D01*
X2010988Y1840163D02*
X2353378Y2182553D01*
X2010988Y1051375D02*
Y1840163D01*
X2989076Y2948991D02*
X3100000Y3059914D01*
Y3653000D01*
X2974873Y2983281D02*
X3064859Y3073267D01*
X1973460Y3031338D02*
X2063682Y3121560D01*
X1939170Y2105493D02*
Y3045542D01*
X2049479Y3155850D01*
X2287140D01*
X2063682Y3121560D02*
X2301343D01*
X2400000Y3220217D01*
Y3376779D01*
X1722698Y1125946D02*
Y1889021D01*
X1939170Y2105493D01*
X2365730Y3391003D02*
Y3475030D01*
X2250000Y3590760D02*
X2365730Y3475030D01*
X1756988Y1051375D02*
Y1874817D01*
X1973460Y2091289D01*
Y3031338D01*
X2287140Y3155850D02*
X2365710Y3234420D01*
Y3390983D01*
X2365730Y3391003D01*
X3800000Y2719493D02*
Y3653000D01*
X3687189Y2655176D02*
X3765710Y2733697D01*
X6703757Y3897758D02*
X6881180D01*
X4883988Y5008993D02*
X4992008Y5117013D01*
X4918278Y4890520D02*
X4992008Y4964250D01*
X4918278Y4683730D02*
Y4890520D01*
X4883988Y4697933D02*
Y5008993D01*
X2772988Y1111743D02*
Y1699141D01*
X2915530Y1841683D01*
X2738698Y1713344D02*
X2901327Y1875973D01*
X2738698Y1125946D02*
Y1713344D01*
D15*
X6516008Y5345250D02*
X6692608D01*
X6516008Y4964250D02*
X6692608D01*
X6516008Y4787650D02*
Y4964250D01*
X9016008Y845250D02*
X9192608D01*
X9016008Y287650D02*
Y464250D01*
X9192608D01*
X3516008D02*
X3692608D01*
X3516008Y287650D02*
Y464250D01*
D16*
Y845250D02*
D03*
X3389008Y1035750D02*
D03*
Y654750D02*
D03*
X3262008Y845250D02*
D03*
X3135008Y1035750D02*
D03*
Y654750D02*
D03*
X3008008Y845250D02*
D03*
X2881008Y1035750D02*
D03*
Y654750D02*
D03*
X2754008Y845250D02*
D03*
X2627008Y1035750D02*
D03*
Y654750D02*
D03*
X2500008Y845250D02*
D03*
X2373008Y1035750D02*
D03*
Y654750D02*
D03*
X2246008Y845250D02*
D03*
X2119008Y1035750D02*
D03*
Y654750D02*
D03*
X1992008Y845250D02*
D03*
X1865008Y1035750D02*
D03*
Y654750D02*
D03*
X1738008Y845250D02*
D03*
X1611008Y1035750D02*
D03*
Y654750D02*
D03*
X1484008Y845250D02*
D03*
Y464250D02*
D03*
X1738008D02*
D03*
X1992008D02*
D03*
X2246008D02*
D03*
X2500008D02*
D03*
X2754008D02*
D03*
X3008008D02*
D03*
X3262008D02*
D03*
X3516008D02*
D03*
X9016008Y845250D02*
D03*
X8889008Y1035750D02*
D03*
Y654750D02*
D03*
X8762008Y845250D02*
D03*
X8635008Y1035750D02*
D03*
Y654750D02*
D03*
X8508008Y845250D02*
D03*
X8381008Y1035750D02*
D03*
Y654750D02*
D03*
X8254008Y845250D02*
D03*
X8127008Y1035750D02*
D03*
Y654750D02*
D03*
X8000008Y845250D02*
D03*
X7873008Y1035750D02*
D03*
Y654750D02*
D03*
X7746008Y845250D02*
D03*
X7619008Y1035750D02*
D03*
Y654750D02*
D03*
X7492008Y845250D02*
D03*
X7365008Y1035750D02*
D03*
Y654750D02*
D03*
X7238008Y845250D02*
D03*
X7111008Y1035750D02*
D03*
Y654750D02*
D03*
X6984008Y845250D02*
D03*
Y464250D02*
D03*
X7238008D02*
D03*
X7492008D02*
D03*
X7746008D02*
D03*
X8000008D02*
D03*
X8254008D02*
D03*
X8508008D02*
D03*
X8762008D02*
D03*
X9016008D02*
D03*
X6516008Y5345250D02*
D03*
X6389008Y5535750D02*
D03*
Y5154750D02*
D03*
X6262008Y5345250D02*
D03*
X6135008Y5535750D02*
D03*
Y5154750D02*
D03*
X6008008Y5345250D02*
D03*
X5881008Y5535750D02*
D03*
Y5154750D02*
D03*
X5754008Y5345250D02*
D03*
X5627008Y5535750D02*
D03*
Y5154750D02*
D03*
X5500008Y5345250D02*
D03*
X5373008Y5535750D02*
D03*
Y5154750D02*
D03*
X5246008Y5345250D02*
D03*
X5119008Y5535750D02*
D03*
Y5154750D02*
D03*
X4992008Y5345250D02*
D03*
X4865008Y5535750D02*
D03*
Y5154750D02*
D03*
X4738008Y5345250D02*
D03*
X4611008Y5535750D02*
D03*
Y5154750D02*
D03*
X4484008Y5345250D02*
D03*
Y4964250D02*
D03*
X4738008D02*
D03*
X4992008D02*
D03*
X5246008D02*
D03*
X5500008D02*
D03*
X5754008D02*
D03*
X6008008D02*
D03*
X6262008D02*
D03*
X6516008D02*
D03*
D17*
X984000Y970800D02*
D03*
X4016000D02*
D03*
X6484000D02*
D03*
X9516000D02*
D03*
X3984000Y5470800D02*
D03*
X7016000D02*
D03*
D18*
X1441936Y3749193D02*
D03*
X1811936D02*
D03*
X1810000Y2400000D02*
D03*
X1440000D02*
D03*
X5310000D02*
D03*
X4940000D02*
D03*
X5640000D02*
D03*
X6365000D02*
D03*
X6735000D02*
D03*
X6010000D02*
D03*
X2510000D02*
D03*
X2140000D02*
D03*
X3210000D02*
D03*
X2840000D02*
D03*
X3540000D02*
D03*
X3910000D02*
D03*
X4240000D02*
D03*
X2141936Y3749193D02*
D03*
X2511936D02*
D03*
X2841936D02*
D03*
X3211936D02*
D03*
X3911936D02*
D03*
X3541936D02*
D03*
X4241936D02*
D03*
X4611936D02*
D03*
X4941936D02*
D03*
X5311936D02*
D03*
X5641936D02*
D03*
X6011936D02*
D03*
X6341684Y3748231D02*
D03*
X6884378Y3900956D02*
D03*
X4610000Y2400000D02*
D03*
%TF.MD5,372f6969ef62dd574634fc4641e6a159*%
M02*
